<svg xmlns="http://www.w3.org/2000/svg" xmlns:xlink="http://www.w3.org/1999/xlink" viewBox="0 0 326.6 202.67">
  <defs>
    <style>
      .meet_1-1 {
        fill: url(#linear-gradient);
      }

      .meet_1-2 {
        fill: url(#linear-gradient-2);
      }

      .meet_1-3 {
        fill: url(#linear-gradient-3);
      }

      .meet_1-4 {
        fill: #045d84;
        opacity: 0.4;
      }

      .meet_1-5 {
        fill: #e9e9e9;
      }

      .meet_1-6 {
        fill: #a5a5a5;
      }

      .meet_1-7 {
        fill: #b4b4b4;
      }

      .meet_1-8 {
        fill: #6e6e6e;
      }

      .meet_1-9 {
        fill: #9b9b9b;
      }

      .meet_1-10 {
        fill: #cecdc2;
      }

      .meet_1-11 {
        fill: #194866;
      }

      .meet_1-12 {
        fill: #dbdac6;
      }

      .meet_1-13 {
        fill: #fff;
      }

      .meet_1-14 {
        fill: #0c374f;
      }

      .meet_1-15 {
        fill: #1f5b7c;
      }

      .meet_1-16 {
        fill: #066666;
      }

      .meet_1-17 {
        fill: #cecece;
      }

      .meet_1-18 {
        fill: #6fbaba;
      }

      .meet_1-19 {
        fill: #929292;
      }

      .meet_1-20 {
        fill: #4f8484;
      }

      .meet_1-21 {
        fill: #a8732b;
      }

      .meet_1-22 {
        fill: url(#linear-gradient-4);
      }

      .meet_1-23 {
        fill: url(#linear-gradient-5);
      }

      .meet_1-24 {
        fill: url(#linear-gradient-6);
      }

      .meet_1-25 {
        fill: #999;
      }

      .meet_1-26 {
        fill: #b5b5b5;
      }

      .meet_1-27 {
        fill: url(#linear-gradient-7);
      }

      .meet_1-28 {
        fill: url(#linear-gradient-8);
      }
    </style>
    <linearGradient id="linear-gradient" x1="-0.185" y1="0.5" x2="1.071" y2="0.5" gradientUnits="objectBoundingBox">
      <stop offset="0" stop-color="#fff"/>
      <stop offset="0.051" stop-color="#fafdfd"/>
      <stop offset="0.114" stop-color="#eaf8f8"/>
      <stop offset="0.184" stop-color="#d1eff0"/>
      <stop offset="0.258" stop-color="#aee3e4"/>
      <stop offset="0.336" stop-color="#80d3d5"/>
      <stop offset="0.417" stop-color="#49c0c2"/>
      <stop offset="0.5" stop-color="#08aaad"/>
      <stop offset="0.51" stop-color="#00a7aa"/>
      <stop offset="0.531" stop-color="#10adaf"/>
      <stop offset="0.633" stop-color="#57c5c7"/>
      <stop offset="0.729" stop-color="#93dadb"/>
      <stop offset="0.817" stop-color="#c2eaeb"/>
      <stop offset="0.894" stop-color="#e3f5f6"/>
      <stop offset="0.957" stop-color="#f8fcfd"/>
      <stop offset="1" stop-color="#fff"/>
    </linearGradient>
    <linearGradient id="linear-gradient-2" x1="0.778" y1="-0.127" x2="-0.286" gradientUnits="objectBoundingBox">
      <stop offset="0" stop-color="#003b61"/>
      <stop offset="1" stop-color="#008b95"/>
    </linearGradient>
    <linearGradient id="linear-gradient-3" x1="1" x2="-0.338" gradientUnits="objectBoundingBox">
      <stop offset="0" stop-color="#003b61"/>
      <stop offset="0.647" stop-color="#007587"/>
      <stop offset="1" stop-color="#008b95"/>
    </linearGradient>
    <linearGradient id="linear-gradient-4" x1="0.5" y1="0.999" x2="0.5" gradientUnits="objectBoundingBox">
      <stop offset="0" stop-color="#ff2428"/>
      <stop offset="1" stop-color="#ff8d00"/>
    </linearGradient>
    <linearGradient id="linear-gradient-5" x1="0.502" y1="0.989" x2="0.502" y2="-0.014" xlink:href="#linear-gradient-4"/>
    <linearGradient id="linear-gradient-6" x1="0.5" y1="1.004" x2="0.5" y2="-0.001" xlink:href="#linear-gradient-4"/>
    <linearGradient id="linear-gradient-7" x1="0.501" y1="1" x2="0.501" y2="0" xlink:href="#linear-gradient-4"/>
    <linearGradient id="linear-gradient-8" x1="0.502" y1="1" x2="0.502" y2="0.001" xlink:href="#linear-gradient-4"/>
  </defs>
  <g id="Group_708" data-name="Group 708" transform="translate(-24.4 -222.418)">
    <path id="XMLID_9198_" class="meet_1-1" d="M49.8,239.08l143.584,39.126a10.581,10.581,0,0,0,4.96,1.1,12.727,12.727,0,0,0,6.429-1.653l57.862-33.431,53.331,13.838c.857-.612,1.776-1.163,2.633-1.776l-53.025-13.777L330.416,205.1c2.021-1.163,3.184-2.817,3.184-4.531a4.376,4.376,0,0,0-2.449-3.8l-.184-.122L145.257,150.6c-3.061-1.653-8.021-1.408-11.389.49l-84.375,46.78-9.123-.918c-.674.674-1.347,1.286-2.021,1.959l8.082.674L10.184,219.731C8.163,220.833,7,222.487,7,224.262a4.376,4.376,0,0,0,2.449,3.8l.184.122,36.86,10.042m156.871,36.922c-2.572,1.47-6.552,1.653-8.695.429l-.184-.122L10.8,225.426a1.652,1.652,0,0,1-.857-1.225c0-.49.49-1.286,1.714-2.021l38.881-21.553,1.225.306.306-1.163L135.338,153.6c2.572-1.469,6.552-1.653,8.695-.429l.184.122,185.71,46.045c.367.245.857.674.857,1.163s-.49,1.286-1.776,2.082Z" transform="translate(17.4 145.78)"/>
    <path id="XMLID_9429_" class="meet_1-2" d="M301.38,178.915l-37.5-2.433-125.318-20.9c-2.267-1.327-6.249-1.161-8.849.387l-83.9,45.57L16.566,199.6v20.518H16.4a2.481,2.481,0,0,0,1.438,2.212l162.814,43.413c2.267,1.327,6.194,1.161,8.793-.387L298.836,202.2a4,4,0,0,0,2.323-2.765h.221Z" transform="translate(29.053 147.363)"/>
    <path id="XMLID_9427_" class="meet_1-3" d="M180.428,228.33,17.559,184.917c-2.267-1.327-1.991-3.595.608-5.088L129.438,118.5c2.6-1.493,6.581-1.659,8.849-.387L299.276,159.7c2.267,1.327,1.991,3.595-.608,5.088L189.221,227.943C186.622,229.492,182.7,229.658,180.428,228.33Z" transform="translate(29.222 164.091)"/>
    <ellipse id="XMLID_9201_" class="meet_1-4" cx="91.571" cy="16.405" rx="91.571" ry="16.405" transform="translate(94.629 328.859) rotate(-0.942)"/>
    <g id="XMLID_7918_" transform="translate(118.841 222.418)">
      <path id="XMLID_9421_" class="meet_1-5" d="M359.866,249.912l19.19-11.005V237.8L359.7,248.861v1.106Z" transform="translate(-243.23 -112.205)"/>
      <path id="XMLID_9420_" class="meet_1-5" d="M389.8,169.613l2.212-1.327V140.8L362.7,159.106v26.38l1.106.5,1.106-.553V160.1l22.951-14.6,1.936-1.217Z" transform="translate(-244.571 -68.85)"/>
      <path id="XMLID_9419_" class="meet_1-6" d="M407.7,171.378l2.212,1.051V147.1l-2.212,1.217Z" transform="translate(-264.685 -71.666)"/>
      <path id="XMLID_9413_" class="meet_1-7" d="M366.7,186.907l22.674-14.545V149.3L366.7,163.9Z" transform="translate(-246.359 -72.649)"/>
      <path id="XMLID_9412_" class="meet_1-8" d="M320.7,244.575l21.568,6.139v-1.272l-2.212-.664v-2.212l-2.212-.774V243.58L320.7,239.1Z" transform="translate(-225.799 -112.786)"/>
      <path id="XMLID_9411_" class="meet_1-8" d="M156.7,256.13l44.243,13.383v-5.53L156.7,250.6Z" transform="translate(-152.497 -117.926)"/>
      <path id="XMLID_9409_" class="meet_1-9" d="M236.7,262.318l38.16-22.287V234.5L236.7,256.787Z" transform="translate(-188.254 -110.73)"/>
      <path id="XMLID_9408_" class="meet_1-8" d="M305.7,240.03l8.3,2.489v-5.475l-8.3-2.544Z" transform="translate(-219.094 -110.73)"/>
      <path id="XMLID_9407_" class="meet_1-9" d="M415.7,182.306l4.424-2.876V173.9l-4.424,2.931Z" transform="translate(-268.26 -83.644)"/>
      <path id="XMLID_9404_" class="meet_1-5" d="M280.4,28.523l.387-.221V26.2L274.7,30.127V32.5l.111-.166,5.364-3.65Z" transform="translate(-205.239 -17.628)"/>
      <path id="XMLID_9403_" class="meet_1-6" d="M269.336,33V30.618L262.7,27.3v2.378l.719.332Z" transform="translate(-199.875 -18.12)"/>
      <path id="XMLID_9402_" class="meet_1-10" d="M274.866,34.35l-.166.166V46.3l5.53-3.595v-12Z" transform="translate(-205.239 -19.639)"/>
      <path id="XMLID_9401_" class="meet_1-11" d="M270.934,33.762l-5.807,3.595-5.807.774V35.863l-2.986,1.88L253.9,48.749,314.347,10.7l-19.19,2.655L270.934,28.674Z" transform="translate(-195.942 -10.7)"/>
      <path id="XMLID_9400_" class="meet_1-12" d="M263.7,47.74l6.083-.774V35.186L263.7,32.2V47.74Z" transform="translate(-200.322 -20.31)"/>
      <path id="XMLID_9391_" class="meet_1-13" d="M269,29.322l6.3-3.927-1.77-1h-.332v1.106l.276.166-.442.277-.774-.442-1.991,1.327-.387.5v.608l-.442.277-.277-.166-.166.166-5.365-2.765L262.7,26Z" transform="translate(-199.875 -16.823)"/>
      <path id="XMLID_9389_" class="meet_1-14" d="M276.2,27.459l2.046-1.327-.664-.332Z" transform="translate(-205.909 -17.449)"/>
      <path id="XMLID_9387_" class="meet_1-13" d="M278.7,25.219l.664.332V24.5h-.055Z" transform="translate(-207.026 -16.868)"/>
      <path id="XMLID_9386_" class="meet_1-14" d="M280.739,23.664V23l-3.042.221-3.042,3.761v.608l-.055-.166.166-.277.332-.442.442-.5,1.327-1.659.608-.719h.055l.774-.055h.5Z" transform="translate(-205.194 -16.198)"/>
      <path id="XMLID_9385_" class="meet_1-14" d="M269.336,28.127v-.608L262.7,24.2v.664l1.106.5Z" transform="translate(-199.875 -16.734)"/>
      <path id="XMLID_9384_" class="meet_1-11" d="M269,24.479l3.152-3.761-6.3-3.318L262.7,21.161Z" transform="translate(-199.875 -13.695)"/>
      <path id="XMLID_9383_" class="meet_1-15" d="M274.7,20.539l3.152-.221L271.552,17l-3.152.221Z" transform="translate(-202.423 -13.516)"/>
      <path id="XMLID_9382_" class="meet_1-14" d="M280.7,25.506l.553.442V24.4l-.553.055Z" transform="translate(-207.92 -16.823)"/>
      <path id="XMLID_9380_" class="meet_1-15" d="M274.8,30.585l.387-.277V29.7l-.387.442Z" transform="translate(-205.283 -19.192)"/>
      <path id="XMLID_9379_" class="meet_1-11" d="M274.3,30.777l.277.166V30.5Z" transform="translate(-205.06 -19.55)"/>
      <path id="XMLID_9375_" class="meet_1-12" d="M156.566,157.458V136l44.243,23.283v53.479L156.4,199.378ZM183,152.481l-8.849-4.646-.94.608M183,178.916" transform="translate(-152.363 -66.704)"/>
      <path id="XMLID_9371_" class="meet_1-10" d="M238.37,157.954,274.594,138.1l-.055,53.313L236.6,213.7V160.221ZM249.43,180.96" transform="translate(-188.209 -67.643)"/>
      <path id="XMLID_9322_" class="meet_1-10" d="M373.239,131.235l-.719-.332-29.145,18.306v21.956l-3.871,2.378-2.765,1.659V151.808l-.553-.332-13.273,8.406v24.223L320.7,185.6V131.014L338.95,119.4v31.3l1.77,1,3.65-4.535,31.357-19.688,1.936-.055v22.232l-4.424,2.876V131.235Zm-47.4,18.14,8.683-5.586V126.645l-.719-.5-8.683,5.586v17.144Z" transform="translate(-225.799 -59.285)"/>
      <path id="XMLID_9320_" class="meet_1-12" d="M305.6,138.1v53.313l8.351,2.544V139.372Z" transform="translate(-219.05 -67.643)"/>
      <path id="XMLID_9319_" class="meet_1-10" d="M358.616,213l-3.816,2.433,3.816,1.991Z" transform="translate(-241.04 -101.121)"/>
      <path id="XMLID_9318_" class="meet_1-6" d="M361.7,213v4.424l.553.332v-4.369Z" transform="translate(-244.124 -101.121)"/>
      <path id="XMLID_9317_" class="meet_1-5" d="M369.4,229.291V227.3l-17.7,11.005v2.212Z" transform="translate(-239.655 -107.512)"/>
      <path id="XMLID_9316_" class="meet_1-13" d="M339.025,217.4l-2.6,1.659v.774l-1.936,1.217-.5-.387-8.627,5.586v.774l-2.157,1.217-.774-.387L320,229.4l17.255,4.48,17.752-11.005" transform="translate(-225.486 -103.087)"/>
      <path id="XMLID_9315_" class="meet_1-13" d="M351.1,242.127l2.212.774,18.471-11.282-2.876-.719Z" transform="translate(-239.387 -109.121)"/>
      <path id="XMLID_9314_" class="meet_1-5" d="M355.7,243.482v2.212l18.25-11.227V232.2Z" transform="translate(-241.443 -109.702)"/>
      <path id="XMLID_9313_" class="meet_1-13" d="M355.1,247.527l2.323.664,19.135-11.061-2.986-.83Z" transform="translate(-241.174 -111.535)"/>
      <path id="XMLID_9312_" class="meet_1-6" d="M324.7,216.768l.553.387V192.932l-.553-.332Z" transform="translate(-227.587 -92.003)"/>
      <path id="XMLID_9311_" class="meet_1-5" d="M325.7,210.629l2.212-1.217V187.4l8.793-5.586.608-.442V203.44l1.659-1.217V178L325.7,186.406Z" transform="translate(-228.034 -85.477)"/>
      <path id="XMLID_9310_" class="meet_1-16" d="M329.7,211.722l8.849-5.586V184.9l-8.849,5.586Z" transform="translate(-229.822 -88.561)"/>
      <path id="XMLID_9309_" class="meet_1-6" d="M345.7,205.779l.553.387V184.1l-.553.442Z" transform="translate(-236.973 -88.203)"/>
      <path id="XMLID_9308_" class="meet_1-13" d="M324.864,186.138l13.328-8.406-.664-.332L324.2,185.806Z" transform="translate(-227.363 -85.209)"/>
      <path id="XMLID_9307_" class="meet_1-6" d="M362.253,195.6V173.587l-.553-.387v22.011Z" transform="translate(-244.124 -83.331)"/>
      <path id="XMLID_9300_" class="meet_1-13" d="M361.864,158.793l29.09-18.306-.664-.387L361.2,158.406Z" transform="translate(-243.901 -68.537)"/>
      <path id="XMLID_9296_" class="meet_1-14" d="M353.7,172v2.212l1.659,1V173Z" transform="translate(-240.549 -82.795)"/>
      <path id="XMLID_9293_" class="meet_1-10" d="M363.4,153.643,394.7,133.9l-15.651.664Z" transform="translate(-244.884 -65.766)"/>
      <path id="XMLID_9281_" class="meet_1-10" d="M349.213,90.892v-.553L344.236,87.8V80.882l-1.051-.5L337.1,84.2,335,83.094,368.016,62.3V78.891Zm5.973-6.194,8.959-5.586V68.328l-1-.5-8.959,5.586V84.2Z" transform="translate(-232.19 -33.763)"/>
      <path id="XMLID_9275_" class="meet_1-13" d="M344.728,94.9,338.7,98.716l.94.5,6.028-3.761Z" transform="translate(-233.844 -48.334)"/>
      <path id="XMLID_9272_" class="meet_1-5" d="M346.739,102.868V95.9L340.6,99.661l1.88,1,1.161-.719.664-.277.774-.387v2.544Z" transform="translate(-234.693 -48.781)"/>
      <path id="XMLID_9271_" class="meet_1-6" d="M348.253,104.544V102l-.553.387v1.88Z" transform="translate(-237.867 -51.508)"/>
      <path id="XMLID_9270_" class="meet_1-17" d="M347.253,104.58V102.7l-.553.277v1.383Z" transform="translate(-237.42 -51.821)"/>
      <path id="XMLID_9269_" class="meet_1-18" d="M345.717,104.583V103.2l-1.217.719Z" transform="translate(-236.437 -52.044)"/>
      <path id="XMLID_9268_" class="meet_1-10" d="M379.5,92.2l-18.8,12.056v.166l18.8-.83Z" transform="translate(-243.677 -47.127)"/>
      <path id="XMLID_9266_" class="meet_1-11" d="M353.2,146.3l1.88,1,19.578-23.615-17.31-9.18v1.383l-.608.055Z" transform="translate(-240.325 -57.095)"/>
      <path id="XMLID_9264_" class="meet_1-11" d="M353.7,147.462l3.263-30.362-1.383.055-1.88,1.217Z" transform="translate(-240.549 -58.257)"/>
      <path id="XMLID_9263_" class="meet_1-15" d="M360.7,113.651l17.31,9.18,22.066-.885L382.268,112.6l-2.6.111-18.969.83Z" transform="translate(-243.677 -56.246)"/>
      <path id="XMLID_9258_" class="meet_1-14" d="M376.056,130.385,356.7,154v2.212l3.705-4.535,15.651-19.08,15.651-.664,1.825-.055,4.646-.166V129.5Z" transform="translate(-241.89 -63.799)"/>
      <path id="XMLID_9257_" class="meet_1-14" d="M149.7,144.7v2.157l3.761,2.046,44.354,14.268v-2.212Z" transform="translate(-149.368 -70.593)"/>
      <path id="XMLID_9256_" class="meet_1-11" d="M149.1,114.977l48.225,16.259,30.141-36.777L177.084,78.2Z" transform="translate(-149.1 -40.87)"/>
      <path id="XMLID_9251_" class="meet_1-14" d="M236.7,144.109v2.212l1.714-2.267,3.705-4.59,1.825-2.267,22.84-27.652,8.074-.332V107l-7.964.332Z" transform="translate(-188.254 -53.743)"/>
      <path id="XMLID_9239_" class="meet_1-15" d="M232.2,59.6,199.9,69.886l50.271,16.259,7.964-.332,8.13,4.258,22.232-.94-4.867-2.489-1.88-1.051-.608-.277L280.7,85.1l-1.161-.664-1.936-1-.94-.5-2.1-1.106-1.88-1L229.764,70.605Z" transform="translate(-171.806 -32.556)"/>
      <path id="XMLID_9238_" class="meet_1-14" d="M342.822,113l-22.122.94v2.212l14.49-.608,1.77-.111,3.705-.111,1.6-.055.553-.055V113Z" transform="translate(-225.799 -56.424)"/>
      <path id="XMLID_9237_" class="meet_1-14" d="M314,113.471v-2.212L305.7,107v2.212Z" transform="translate(-219.094 -53.743)"/>
      <path id="XMLID_9236_" class="meet_1-15" d="M253.9,48.749,296.816,58.98l38.768-24.389L314.4,10.7Z" transform="translate(-195.942 -10.7)"/>
      <path id="XMLID_9235_" class="meet_1-6" d="M314,115.258,305.7,111v11.669l3.705.553,4.59.719Z" transform="translate(-219.094 -55.53)"/>
      <path id="XMLID_9234_" class="meet_1-5" d="M320.7,118.208v8.683l14.711-9.291Z" transform="translate(-225.799 -58.48)"/>
      <path id="XMLID_9233_" class="meet_1-13" d="M313.33,133.417l-8.019-1.217-.111,1.051,8.13,1.272.94-.608Z" transform="translate(-218.871 -65.006)"/>
      <path id="XMLID_9232_" class="meet_1-13" d="M279.859,132.6l-.94-.5L248.28,148.415l-1.88,2.267,32.519-17.476Z" transform="translate(-192.59 -64.961)"/>
      <path id="XMLID_9231_" class="meet_1-5" d="M280.849,122.669V111l-8.074.332L250.1,138.984Z" transform="translate(-194.243 -55.53)"/>
      <path id="XMLID_9230_" class="meet_1-14" d="M370.323,56.112V53.9L331.5,78.289l1.88,1L366.452,58.49Z" transform="translate(-230.626 -30.009)"/>
      <path id="XMLID_9228_" class="meet_1-13" d="M334.611,117.511,319.9,126.8l.94.5,15.651-9.9Z" transform="translate(-225.441 -58.391)"/>
      <path id="XMLID_9227_" class="meet_1-5" d="M276.335,134.1,243.65,151.576l-3.65,4.59,36.335-19.854Z" transform="translate(-189.729 -65.855)"/>
      <path id="XMLID_9226_" class="meet_1-6" d="M305.7,134.1v2.212l8.3,1.272v-2.212Z" transform="translate(-219.094 -65.855)"/>
      <path id="XMLID_9093_" class="meet_1-5" d="M320.7,127.818v2.212l18.195-11.614,1.825-1.217-3.816.111-15.485,9.9Z" transform="translate(-225.799 -58.302)"/>
      <path id="XMLID_9091_" class="meet_1-6" d="M369.7,82.4V93.184l1.106.5V82.9Z" transform="translate(-247.7 -42.747)"/>
      <path id="XMLID_9087_" class="meet_1-13" d="M378.449,72.3,369.6,77.886l.94.5,8.9-5.586Z" transform="translate(-247.655 -38.233)"/>
      <path id="XMLID_9080_" class="meet_1-5" d="M380.549,73.2V83.984L371.7,89.57V78.786Zm-1.659,3.374-.774.387-.277.277-3.871,2.544v6.36l4.977-3.208v-6.36Z" transform="translate(-248.594 -38.635)"/>
      <path id="XMLID_9067_" class="meet_1-6" d="M328.7,141.7v17.144l.553.5V142.2Z" transform="translate(-229.375 -69.252)"/>
      <path id="XMLID_9066_" class="meet_1-13" d="M336.749,131.6l-8.849,5.586.94.5,8.9-5.586Z" transform="translate(-229.017 -64.738)"/>
      <path id="XMLID_9061_" class="meet_1-5" d="M338.549,132.5v17.144L329.7,155.23V138.086Zm-1.659,3.374-.719.387-.332.277-3.927,2.544v12.775l4.977-3.208Z" transform="translate(-229.822 -65.14)"/>
      <g id="XMLID_9040_" transform="translate(61.221 104.856)">
        <path id="XMLID_9060_" class="meet_1-6" d="M260.7,215.1v17.2l.553.5V215.653Z" transform="translate(-260.202 -206.915)"/>
        <path id="XMLID_9059_" class="meet_1-13" d="M273.626,200.3,259.8,208.485l.94.553,13.826-8.24Z" transform="translate(-259.8 -200.3)"/>
        <path id="XMLID_9054_" class="meet_1-5" d="M275.526,201.2v17.144l-13.826,8.24V209.44Zm-1.659,3.374-.719.332-.553.277-4.148,2.433-.719.553-3.816,2.378v12.775l9.955-5.973V204.574Z" transform="translate(-260.649 -200.702)"/>
        <path id="XMLID_9053_" class="meet_1-13" d="M265.7,236.049l9.789-5.973-.442-.277-9.346,5.586Z" transform="translate(-262.437 -213.485)"/>
        <path id="XMLID_9052_" class="meet_1-6" d="M282.7,219.743l.553.277V207.3l-.553.332Z" transform="translate(-270.035 -203.429)"/>
        <path id="XMLID_9047_" class="meet_1-17" d="M265.7,225.553v-.5l3.871-2.378v-5.364L265.7,219.69V218.64l3.871-2.378v-5.2l1.106-.553v5.2l3.871-2.433v-5.2l.553-.277v12.112Zm8.849-5.862v-5.364l-3.871,2.433v5.364Z" transform="translate(-262.437 -203.652)"/>
        <path id="XMLID_9046_" class="meet_1-18" d="M269.571,230.364V225l-3.871,2.378v5.364Z" transform="translate(-262.437 -211.34)"/>
        <path id="XMLID_9045_" class="meet_1-18" d="M278.571,213.6v-5.2l-3.871,2.433v5.2Z" transform="translate(-266.46 -203.92)"/>
        <path id="XMLID_9043_" class="meet_1-18" d="M265.7,221.277l3.871-2.323V213.7l-3.871,2.378Z" transform="translate(-262.437 -206.289)"/>
        <path id="XMLID_9042_" class="meet_1-18" d="M274.7,222.089V227.4l3.871-2.433V219.6Z" transform="translate(-266.46 -208.926)"/>
      </g>
      <g id="XMLID_8879_" transform="translate(61.332 81.905)">
        <path id="XMLID_9039_" class="meet_1-6" d="M260.7,173.7v17.2l.553.5V174.253Z" transform="translate(-260.313 -165.46)"/>
        <path id="XMLID_9038_" class="meet_1-13" d="M273.826,158.8,260,167.04l1,.553,13.771-8.24Z" transform="translate(-260 -158.8)"/>
        <path id="XMLID_8894_" class="meet_1-5" d="M275.526,159.8v17.144l-13.826,8.24V168.04Zm-1.659,3.318-.664.332-.5.277-4.148,2.433-.774.553-3.871,2.378v12.775l9.955-5.973Z" transform="translate(-260.76 -159.247)"/>
        <path id="XMLID_8893_" class="meet_1-13" d="M265.7,194.6l9.844-5.973-.5-.332-9.346,5.641Z" transform="translate(-262.548 -171.985)"/>
        <path id="XMLID_8892_" class="meet_1-6" d="M282.7,178.243l.553.332V165.8l-.553.387Z" transform="translate(-270.146 -161.929)"/>
        <path id="XMLID_8885_" class="meet_1-17" d="M265.7,184.153v-.5l3.871-2.378v-5.364L265.7,178.29V177.24l3.871-2.378v-5.2l1.106-.553v5.2l3.871-2.433v-5.2l.553-.277v12.112Zm8.849-5.862v-5.364l-3.871,2.433v5.364Z" transform="translate(-262.548 -162.197)"/>
        <path id="XMLID_8883_" class="meet_1-18" d="M269.571,188.964V183.6l-3.871,2.378v5.364Z" transform="translate(-262.548 -169.885)"/>
        <path id="XMLID_8882_" class="meet_1-18" d="M278.571,172.154V166.9l-3.871,2.489v5.2Z" transform="translate(-266.57 -162.42)"/>
        <path id="XMLID_8881_" class="meet_1-18" d="M265.7,179.877l3.871-2.378v-5.2l-3.871,2.378Z" transform="translate(-262.548 -164.834)"/>
        <path id="XMLID_8880_" class="meet_1-18" d="M274.7,180.633V186l3.871-2.433V178.2Z" transform="translate(-266.57 -167.471)"/>
      </g>
      <path id="XMLID_8878_" class="meet_1-13" d="M375.7,93.784l4.811-3.152-.5-.332L375.7,93.12Z" transform="translate(-250.382 -46.278)"/>
      <path id="XMLID_8876_" class="meet_1-6" d="M383.7,85.383l.553.332V79.3l-.553.387Z" transform="translate(-253.958 -41.362)"/>
      <path id="XMLID_8874_" class="meet_1-17" d="M380.124,85.7V80l-.553.277v5.2L375.7,88.019v.5Z" transform="translate(-250.382 -41.675)"/>
      <path id="XMLID_8872_" class="meet_1-18" d="M379.571,85.7V80.5L375.7,83.044v5.2Z" transform="translate(-250.382 -41.898)"/>
      <path id="XMLID_8871_" class="meet_1-13" d="M333.7,164.684l4.867-3.208-.5-.277-4.369,2.82Z" transform="translate(-231.609 -77.968)"/>
      <path id="XMLID_8867_" class="meet_1-6" d="M341.7,151.1l.553.277V138.6l-.553.387Z" transform="translate(-235.185 -67.867)"/>
      <path id="XMLID_8864_" class="meet_1-17" d="M338.124,151.412V139.3l-.553.277v11.558l-3.871,2.544v.553Z" transform="translate(-231.609 -68.179)"/>
      <path id="XMLID_8860_" class="meet_1-18" d="M337.571,145v-5.2l-3.871,2.544v5.2Z" transform="translate(-231.609 -68.403)"/>
      <path id="XMLID_8857_" class="meet_1-18" d="M333.7,158.73l3.871-2.544V150.6l-3.871,2.544Z" transform="translate(-231.609 -73.23)"/>
      <path id="XMLID_8851_" class="meet_1-17" d="M337.571,149.2l-3.871,2.544v.774l3.871-2.544Z" transform="translate(-231.609 -72.604)"/>
      <path id="XMLID_8846_" class="meet_1-5" d="M189.7,219.8v12.775l.553-.5V219.966Z" transform="translate(-167.247 -104.16)"/>
      <path id="XMLID_8845_" class="meet_1-13" d="M189.4,242.5l5.143,1.548v-.664L190.008,242Z" transform="translate(-167.113 -114.083)"/>
      <path id="XMLID_8844_" class="meet_1-19" d="M190.7,232.212l4.424,1.383v-.5l-3.871-1.217V220.266l-.553-.166Z" transform="translate(-167.694 -104.294)"/>
      <path id="XMLID_8015_" class="meet_1-20" d="M191.7,236.841l3.871,1.217v-5.641L191.7,231.2Z" transform="translate(-168.141 -109.255)"/>
      <path id="XMLID_8014_" class="meet_1-19" d="M191.7,230.574l3.871,1.217v-.719L191.7,229.8Z" transform="translate(-168.141 -108.63)"/>
      <path id="XMLID_8013_" class="meet_1-20" d="M191.7,225.6l3.871,1.272v-5.254L191.7,220.4Z" transform="translate(-168.141 -104.428)"/>
      <path id="XMLID_8012_" class="meet_1-13" d="M186.8,213.3l-1,.774,8.9,2.765.94-.774Z" transform="translate(-165.504 -101.255)"/>
      <path id="XMLID_8009_" class="meet_1-6" d="M195.549,217.465v17.144l-8.849-2.765V214.7Zm-2.212,14.379V219.069L189.3,217.8l-.442-.166-.5-.166V230.24Z" transform="translate(-165.906 -101.88)"/>
      <path id="XMLID_8008_" class="meet_1-5" d="M202.7,236.274l.553-.83V218.3l-.553.774Z" transform="translate(-173.057 -103.49)"/>
      <path id="XMLID_8007_" class="meet_1-5" d="M190.7,179.3v12.775l.553-.5V179.466Z" transform="translate(-167.694 -86.058)"/>
      <path id="XMLID_8006_" class="meet_1-13" d="M190.2,202l5.254,1.549v-.664l-4.59-1.383Z" transform="translate(-167.47 -95.981)"/>
      <path id="XMLID_8005_" class="meet_1-19" d="M191.7,191.712l4.424,1.383v-.5l-3.871-1.272V179.766l-.553-.166Z" transform="translate(-168.141 -86.192)"/>
      <path id="XMLID_8004_" class="meet_1-20" d="M192.7,196.286l3.871,1.272v-5.641L192.7,190.7Z" transform="translate(-168.588 -91.153)"/>
      <path id="XMLID_8003_" class="meet_1-19" d="M192.7,190.074l3.871,1.217v-.719L192.7,189.3Z" transform="translate(-168.588 -90.528)"/>
      <path id="XMLID_8002_" class="meet_1-20" d="M192.7,185.1l3.871,1.272v-5.254L192.7,179.9Z" transform="translate(-168.588 -86.326)"/>
      <path id="XMLID_8001_" class="meet_1-13" d="M187.44,172.8l-.94.774,8.849,2.765,1-.774Z" transform="translate(-165.816 -83.153)"/>
      <path id="XMLID_7920_" class="meet_1-6" d="M195.549,176.965v17.144l-8.849-2.765V174.2Zm-1.659,14.379V178.569l-4.148-1.272-.387-.166-.442-.166V189.74Z" transform="translate(-165.906 -83.778)"/>
      <path id="XMLID_7919_" class="meet_1-5" d="M202.7,195.774l1.106-.83V177.8l-1.106.774Z" transform="translate(-173.057 -85.388)"/>
    </g>
    <g id="XMLID_9431_" transform="translate(189.354 250.009)">
      <g id="XMLID_9504_" transform="translate(38.989 30.312)">
        <path id="XMLID_9510_" class="meet_1-21" d="M347.487,120.488l1.714-.774s2.433-3.208,3.373-3.263a6.98,6.98,0,0,0,2.378-1.051s.774,0-.166,1.383l-.94,1.327s-.774,2.655-1.493,2.876c-.664.221-5.254.719-5.254.719Z" transform="translate(-347.1 -115.4)"/>
        <path id="XMLID_9509_" class="meet_1-21" d="M349.462,124.407l1.991-.332a9.714,9.714,0,0,0,2.71-.221c1.493-.332,1.991-1.493,1.88-2.931a3.867,3.867,0,0,0-.608-2.046s-1.77-.608-2.655.608-4.369,2.544-4.092,3.152C348.964,123.191,349.462,124.407,349.462,124.407Z" transform="translate(-347.803 -116.886)"/>
        <path id="XMLID_9508_" class="meet_1-21" d="M359.6,118.321l2.931-.166,2.71-.055-.166.553-1.936.277-2.71,1.88-.277-.83Z" transform="translate(-352.687 -116.607)"/>
        <path id="XMLID_9507_" class="meet_1-21" d="M363.531,121.5l2.323.664v.553l-2.433-.221-2.489.608-.332-1.6Z" transform="translate(-353.134 -118.126)"/>
        <path id="XMLID_9506_" class="meet_1-21" d="M365.69,124.461l-1.825-.608L362.7,123.3l-1.383.221-.221,1.327,1.493-.332,2.6.442Z" transform="translate(-353.357 -118.931)"/>
        <path id="XMLID_9505_" class="meet_1-21" d="M364.158,126.959l-3.1-1.659-.94.221-.221.885,1.659.277,2.046.5Z" transform="translate(-352.821 -119.825)"/>
      </g>
      <path id="XMLID_9503_" class="meet_1-22" d="M306.2,97.533l10.895,15.983,17.531-.94-2.489-2.765-12.112-2.1L314.108,92.5Z" transform="translate(-289.83 -74.852)"/>
      <g id="XMLID_9434_">
        <path id="XMLID_9502_" class="meet_1-23" d="M280.826,275.154a1.694,1.694,0,0,0-.055.885,21.919,21.919,0,0,0,4.535.111,7.131,7.131,0,0,0,1.217-.553c.055-.055.221-.332.277-.332.166-.055.221.055.332,0,.332-.166.5-.332.5-.387a3.494,3.494,0,0,0-.111-2.212s-2.212-1-2.765-.277C283.536,273.882,281.324,274.38,280.826,275.154Z" transform="translate(-278.448 -155.139)"/>
        <path id="XMLID_9499_" class="meet_1-24" d="M319.4,272.24l.5,2.544h2.6s.166-.387.387-.387c.166,0,.442.387.664.387h6.581s.111-.553,0-.719a1.7,1.7,0,0,0-.774-.332c-1.327-.387-5.2-1.549-5.862-2.82C322.663,269.308,319.4,272.24,319.4,272.24Z" transform="translate(-295.73 -154.381)"/>
        <path id="XMLID_9498_" class="meet_1-25" d="M292.766,147.153s5.42,23.393,9.457,30.528c3.982,7.134,7.19,5.917,7.19,5.917l-5.143-43.579-8.24-.719S290.886,139.521,292.766,147.153Z" transform="translate(-283.641 -95.77)"/>
        <path id="XMLID_9497_" class="meet_1-26" d="M304.909,139.9l4.2.387,4.867,41.312c-4.258-8.461-10.286-33.514-10.286-33.514C302.476,143.108,303.693,140.9,304.909,139.9Z" transform="translate(-288.484 -96.038)"/>
        <path id="XMLID_9496_" class="meet_1-26" d="M293.561,165.153l11.227-5.917-.94-6.913L295,150l-5.2.885Z" transform="translate(-282.5 -100.553)"/>
        <path id="XMLID_9494_" class="meet_1-25" d="M309.344,190.9s-.94.5,1.327,17.752,4.2,28.094,4.2,28.094l4.59-.885-2.489-29.145Z" transform="translate(-291.149 -118.833)"/>
        <path id="XMLID_9493_" class="meet_1-26" d="M296.135,138.327s-2.876,38.768-3.318,40.7c-1.6,6.636-5.807,2.655-6.415.442-.553-2.212-1.548-18.582-1.327-30.528L285.24,137Z" transform="translate(-280.374 -94.742)"/>
        <path id="XMLID_9492_" class="meet_1-26" d="M289.987,201.178s5.586-5.475,1.936,11.78c-1.493,7.079-1.6,17.863-2.267,27.486-.055.608-3.65.166-3.65.166s-.94-19.3-1.327-25.329C284.346,209.252,287.111,196.864,289.987,201.178Z" transform="translate(-280.198 -123.028)"/>
        <path id="XMLID_9491_" class="meet_1-27" d="M304.415,91.416l-1.659,37.441L283.4,125.814l2.267-33.625C285.667,92.245,292.636,85.166,304.415,91.416Z" transform="translate(-279.639 -73.215)"/>
        <path id="XMLID_9490_" class="meet_1-21" d="M302.7,82.866c0,1.493,1,3.042,2.489,3.042h1.051a3.271,3.271,0,0,0,3.042-3.042V77.723c0-1.493-1.548-2.323-3.042-2.323h-1.051a2.226,2.226,0,0,0-2.489,2.323Z" transform="translate(-288.266 -67.209)"/>
        <path id="XMLID_9485_" class="meet_1-13" d="M330.542,277.3c.055.553,0,.553,0,.553h-6.581c-.277,0-.5-.387-.664-.387-.221,0-.387.387-.387.387h-2.6l-.111-.553Z" transform="translate(-296.088 -157.451)"/>
        <path id="XMLID_9484_" class="meet_1-13" d="M280.7,277.083c1.051.111,3.263.387,3.705.332a7.088,7.088,0,0,0,3.374-1.714,3.8,3.8,0,0,1-.111.719s-.221.166-.5.387c-.111.055-.166-.055-.332,0-.055.055-.221.332-.276.332a4.427,4.427,0,0,1-1.217.553,21.919,21.919,0,0,1-4.535-.111A1.635,1.635,0,0,1,280.7,277.083Z" transform="translate(-278.433 -156.736)"/>
        <g id="XMLID_9479_" transform="translate(28.246 117.421)">
          <path id="XMLID_9483_" class="meet_1-13" d="M330.189,274.713c.055.055.221,0,.387-.166.5-.387.442-.332.332-.387s-.166-.111-.442.111C330.244,274.437,330.133,274.6,330.189,274.713Z" transform="translate(-328.792 -273.447)"/>
          <path id="XMLID_9482_" class="meet_1-13" d="M328.889,274.113c.055.055.221,0,.387-.166.5-.387.442-.332.332-.387s-.166-.111-.442.111C328.944,273.837,328.833,274.058,328.889,274.113Z" transform="translate(-328.211 -273.179)"/>
          <path id="XMLID_9481_" class="meet_1-13" d="M327.689,273.513c.055.055.221,0,.387-.166.5-.387.442-.332.332-.387s-.166-.111-.442.111C327.744,273.237,327.633,273.4,327.689,273.513Z" transform="translate(-327.675 -272.911)"/>
        </g>
        <g id="XMLID_9469_" transform="translate(4.148 117.835)">
          <path id="XMLID_9477_" class="meet_1-13" d="M284.1,275.393c0,.055.111.111.332.111a8.169,8.169,0,0,1,1.161.055c.221,0,.387,0,.387-.055s-.166-.166-.332-.166a8.164,8.164,0,0,0-1.161-.055C284.266,275.227,284.1,275.282,284.1,275.393Z" transform="translate(-284.1 -274.375)"/>
          <path id="XMLID_9476_" class="meet_1-13" d="M285.3,274.466c0,.055.111.111.332.111a4.211,4.211,0,0,1,1.161.166c.166.055.332.055.387-.055,0-.055-.166-.166-.332-.221a8.391,8.391,0,0,0-1.161-.166C285.466,274.355,285.3,274.411,285.3,274.466Z" transform="translate(-284.636 -273.945)"/>
          <path id="XMLID_9472_" class="meet_1-13" d="M286.4,273.737q0,.083.332.166a4.434,4.434,0,0,1,1.161.276c.166.055.332.055.332,0s-.166-.221-.332-.276a4.308,4.308,0,0,0-1.161-.221C286.566,273.626,286.4,273.681,286.4,273.737Z" transform="translate(-285.128 -273.659)"/>
        </g>
        <g id="XMLID_9450_" transform="translate(14.821 28.653)">
          <path id="XMLID_9465_" class="meet_1-21" d="M303.787,117.488l1.714-.774s2.433-3.208,3.374-3.263a6.98,6.98,0,0,0,2.378-1.051s.774,0-.166,1.383l-.94,1.327s-.774,2.655-1.493,2.876c-.664.221-5.254.719-5.254.719Z" transform="translate(-303.4 -112.4)"/>
          <path id="XMLID_9462_" class="meet_1-21" d="M305.762,121.407l1.991-.332a9.715,9.715,0,0,0,2.71-.221c1.493-.332,1.991-1.493,1.88-2.931a3.867,3.867,0,0,0-.608-2.046s-1.77-.608-2.655.608-4.369,2.544-4.092,3.152C305.264,120.191,305.762,121.407,305.762,121.407Z" transform="translate(-304.103 -113.886)"/>
          <path id="XMLID_9458_" class="meet_1-21" d="M315.9,115.321l2.931-.166,2.765-.055-.221.553-1.936.277-2.655,1.88-.277-.83Z" transform="translate(-308.987 -113.607)"/>
          <path id="XMLID_9457_" class="meet_1-21" d="M319.876,118.5l2.378.664-.055.553-2.433-.221-2.489.608L317,118.5Z" transform="translate(-309.479 -115.126)"/>
          <path id="XMLID_9456_" class="meet_1-21" d="M322.035,121.461l-1.825-.608-1.161-.553-1.383.221-.166,1.327,1.493-.332,2.544.442Z" transform="translate(-309.702 -115.931)"/>
          <path id="XMLID_9455_" class="meet_1-21" d="M320.5,123.959l-3.042-1.659-1,.221-.166.885,1.6.277,2.046.5Z" transform="translate(-309.166 -116.825)"/>
        </g>
        <path id="XMLID_9449_" class="meet_1-28" d="M282.13,93.3c-3.429,3.927-5.53,20.462-5.53,20.462s.166,3.982,4.48,1.991c5.641-2.544,12.222-4.811,12.222-4.811l-.664-4.2-9.236,2.655L287.716,90.7C287.716,90.755,283.734,91.53,282.13,93.3Z" transform="translate(-276.6 -74.048)"/>
        <g id="XMLID_9438_" transform="translate(12.754)">
          <path id="XMLID_9448_" class="meet_1-21" d="M311,76.868a1.655,1.655,0,0,1-1.438,1.549H303.7c-.719,0-1-.83-1-1.549V68.13c0-.719.277-.83,1-.83H309.5c.719,0,1.438.111,1.438.83v8.738Z" transform="translate(-301.02 -63.589)"/>
          <path id="XMLID_9447_" d="M316.506,69.594a5.072,5.072,0,0,0,.94-1.383,1.849,1.849,0,0,0-.83-1.6c-.664-.387-1.217.332-1.217.332a5.815,5.815,0,0,1,1.106.774C316.561,67.935,316.506,69.594,316.506,69.594Z" transform="translate(-306.697 -63.228)"/>
          <path id="XMLID_9446_" d="M300.4,69.057a19.017,19.017,0,0,1-.719-4.314c.166-1,.277-1.659,1.493-1.77,1.77-.166,1.825.221,2.71-.332a23.086,23.086,0,0,1,2.986-1.991,1.826,1.826,0,0,1,2.378,1.77,1.825,1.825,0,0,0,.83,1.6c-.055.166-.387.277-.94.553a4.885,4.885,0,0,1-3.871.664c-1.272-.332-3.595-1.051-3.871-.111s-.166,3.761-.276,3.982C300.9,69.333,300.623,69.223,300.4,69.057Z" transform="translate(-299.663 -60.589)"/>
          <path id="XMLID_9445_" class="meet_1-21" d="M302.912,78.63c0,.221-.387.387-.608.387h-1.272c-.221,0-.332-.166-.332-.387V76.307c0-.221.055-.055.332-.055H302.3c.221,0,.608-.166.608.055Z" transform="translate(-300.126 -67.563)"/>
          <path id="XMLID_9444_" class="meet_1-21" d="M316.895,78.63c0,.221-.553.387-.774.387h-1.272c-.221,0-.166-.166-.166-.387V76.307c0-.221-.111-.055.166-.055h1.272c.221,0,.774-.166.774.055Z" transform="translate(-306.366 -67.563)"/>
          <path id="XMLID_9443_" d="M302.7,77.3v4.59c0,1.051.221,3.318,6.083,3.318,3.429,0,3.208-2.544,3.208-3.374a7.805,7.805,0,0,0-1.106-2.876V80.4a2.771,2.771,0,0,0-2.378-1.383c-2.655,0-3.1,1.549-4.258,1.549C303.308,80.452,302.7,78.959,302.7,77.3Z" transform="translate(-301.02 -68.058)"/>
          <path id="XMLID_9440_" class="meet_1-21" d="M310.921,83.853h1.825c.221,0,.719-.221.719-.442V83.3H310.7v.111C310.7,83.687,310.7,83.853,310.921,83.853Z" transform="translate(-304.596 -70.74)"/>
        </g>
      </g>
    </g>
  </g>
</svg>
