<svg xmlns="http://www.w3.org/2000/svg" xmlns:xlink="http://www.w3.org/1999/xlink" viewBox="0 0 330.3 233.946">
  <defs>
    <style>
      .meet_3-1 {
        fill: url(#linear-gradient);
      }

      .meet_3-2 {
        fill: url(#linear-gradient-2);
      }

      .meet_3-3 {
        fill: url(#linear-gradient-3);
      }

      .meet_3-4 {
        fill: #045d84;
        opacity: 0.4;
      }

      .meet_3-5 {
        fill: #194866;
      }

      .meet_3-42, .meet_3-6 {
        fill: #dbdac6;
      }

      .meet_3-7 {
        fill: #e6e6e6;
      }

      .meet_3-8 {
        fill: #0d5959;
      }

      .meet_3-9 {
        fill: #066666;
      }

      .meet_3-10 {
        fill: #00747a;
      }

      .meet_3-11, .meet_3-47 {
        fill: #879ba6;
      }

      .meet_3-12 {
        fill: #a5a5a5;
      }

      .meet_3-13 {
        fill: #e9e9e9;
      }

      .meet_3-14 {
        fill: url(#linear-gradient-4);
      }

      .meet_3-15 {
        fill: #fff;
      }

      .meet_3-16 {
        fill: #456327;
      }

      .meet_3-17 {
        fill: #929292;
      }

      .meet_3-18 {
        fill: #4f8484;
      }

      .meet_3-19 {
        fill: none;
      }

      .meet_3-20 {
        fill: #b5b5b5;
      }

      .meet_3-21 {
        fill: #ededed;
      }

      .meet_3-22 {
        fill: url(#linear-gradient-5);
      }

      .meet_3-23 {
        fill: url(#linear-gradient-6);
      }

      .meet_3-24 {
        fill: url(#linear-gradient-7);
      }

      .meet_3-25 {
        fill: url(#linear-gradient-8);
      }

      .meet_3-26 {
        fill: #00334f;
      }

      .meet_3-27, .meet_3-40 {
        fill: #003b61;
      }

      .meet_3-28 {
        fill: url(#linear-gradient-9);
      }

      .meet_3-29 {
        fill: url(#linear-gradient-10);
      }

      .meet_3-30 {
        fill: url(#linear-gradient-11);
      }

      .meet_3-31 {
        fill: url(#linear-gradient-12);
      }

      .meet_3-32 {
        fill: url(#linear-gradient-13);
      }

      .meet_3-33 {
        fill: url(#linear-gradient-14);
      }

      .meet_3-34 {
        fill: url(#linear-gradient-15);
      }

      .meet_3-35 {
        fill: url(#linear-gradient-16);
      }

      .meet_3-36 {
        fill: url(#linear-gradient-17);
      }

      .meet_3-37 {
        fill: url(#linear-gradient-18);
      }

      .meet_3-38 {
        fill: url(#linear-gradient-19);
      }

      .meet_3-39, .meet_3-40, .meet_3-41, .meet_3-42, .meet_3-43, .meet_3-44, .meet_3-45, .meet_3-46, .meet_3-47, .meet_3-48, .meet_3-49 {
        fill-rule: evenodd;
      }

      .meet_3-39 {
        fill: url(#linear-gradient-20);
      }

      .meet_3-41 {
        fill: #f76a00;
      }

      .meet_3-43 {
        fill: url(#linear-gradient-21);
      }

      .meet_3-44 {
        fill: #f79e00;
      }

      .meet_3-45 {
        fill: url(#linear-gradient-22);
      }

      .meet_3-46 {
        fill: url(#linear-gradient-23);
      }

      .meet_3-48 {
        fill: url(#linear-gradient-24);
      }

      .meet_3-49 {
        fill: #b0b0b0;
      }
    </style>
    <linearGradient id="linear-gradient" x1="-0.185" y1="0.5" x2="1.071" y2="0.5" gradientUnits="objectBoundingBox">
      <stop offset="0" stop-color="#fff"/>
      <stop offset="0.051" stop-color="#fafdfd"/>
      <stop offset="0.114" stop-color="#eaf8f8"/>
      <stop offset="0.184" stop-color="#d1eff0"/>
      <stop offset="0.258" stop-color="#aee3e4"/>
      <stop offset="0.336" stop-color="#80d3d5"/>
      <stop offset="0.417" stop-color="#49c0c2"/>
      <stop offset="0.5" stop-color="#08aaad"/>
      <stop offset="0.51" stop-color="#00a7aa"/>
      <stop offset="0.531" stop-color="#10adaf"/>
      <stop offset="0.633" stop-color="#57c5c7"/>
      <stop offset="0.729" stop-color="#93dadb"/>
      <stop offset="0.817" stop-color="#c2eaeb"/>
      <stop offset="0.894" stop-color="#e3f5f6"/>
      <stop offset="0.957" stop-color="#f8fcfd"/>
      <stop offset="1" stop-color="#fff"/>
    </linearGradient>
    <linearGradient id="linear-gradient-2" x1="-0.283" x2="0.729" gradientUnits="objectBoundingBox">
      <stop offset="0" stop-color="#008b95"/>
      <stop offset="1" stop-color="#003b61"/>
    </linearGradient>
    <linearGradient id="linear-gradient-3" x1="-0.272" y1="0.229" x2="1.129" y2="0.173" xlink:href="#linear-gradient-2"/>
    <linearGradient id="linear-gradient-4" x1="0.497" y1="0" x2="0.497" y2="1" xlink:href="#linear-gradient-2"/>
    <linearGradient id="linear-gradient-5" x1="0.503" y1="1.001" x2="0.503" y2="-0.014" xlink:href="#linear-gradient-2"/>
    <linearGradient id="linear-gradient-6" x1="0.345" y1="194.803" x2="0.345" y2="-152.902" xlink:href="#linear-gradient-2"/>
    <linearGradient id="linear-gradient-7" x1="0.49" y1="98.901" x2="0.49" y2="-74.951" xlink:href="#linear-gradient-2"/>
    <linearGradient id="linear-gradient-8" x1="0.565" y1="193.803" x2="0.565" y2="-153.902" xlink:href="#linear-gradient-2"/>
    <linearGradient id="linear-gradient-9" x1="0.503" y1="10.893" x2="0.503" y2="-0.011" xlink:href="#linear-gradient-2"/>
    <linearGradient id="linear-gradient-10" x1="0.499" y1="0.999" x2="0.499" y2="-0.005" xlink:href="#linear-gradient-2"/>
    <linearGradient id="linear-gradient-11" x1="0.497" y1="1.175" x2="0.497" y2="0.003" xlink:href="#linear-gradient-2"/>
    <linearGradient id="linear-gradient-12" x1="0.497" y1="1.861" x2="0.497" y2="-0.013" xlink:href="#linear-gradient-2"/>
    <linearGradient id="linear-gradient-13" x1="0.504" y1="0.976" x2="0.504" y2="-27.622" xlink:href="#linear-gradient-2"/>
    <linearGradient id="linear-gradient-14" x1="0.496" y1="1.121" x2="0.496" y2="-25.361" xlink:href="#linear-gradient-2"/>
    <linearGradient id="linear-gradient-15" x1="0.502" y1="1.045" x2="0.502" y2="-45.299" xlink:href="#linear-gradient-2"/>
    <linearGradient id="linear-gradient-16" x1="0.501" y1="1" x2="0.501" y2="-0.001" xlink:href="#linear-gradient-2"/>
    <linearGradient id="linear-gradient-17" x1="0.5" y1="2.5" x2="0.5" y2="-0.016" xlink:href="#linear-gradient-2"/>
    <linearGradient id="linear-gradient-18" x1="0.5" y1="2.173" x2="0.5" y2="-0.002" xlink:href="#linear-gradient-2"/>
    <linearGradient id="linear-gradient-19" x1="0.509" y1="1.045" x2="0.509" y2="-17.442" xlink:href="#linear-gradient-2"/>
    <linearGradient id="linear-gradient-20" x1="0.004" y1="0.501" x2="1.008" y2="0.501" xlink:href="#linear-gradient-2"/>
    <linearGradient id="linear-gradient-21" x1="0.001" y1="0.499" x2="0.999" y2="0.499" gradientUnits="objectBoundingBox">
      <stop offset="0" stop-color="#ff2428"/>
      <stop offset="1" stop-color="#ff8d00"/>
    </linearGradient>
    <linearGradient id="linear-gradient-22" x1="0" y1="0.501" x2="1.001" y2="0.501" xlink:href="#linear-gradient-21"/>
    <linearGradient id="linear-gradient-23" x1="0" y1="0.5" x2="1.001" y2="0.5" xlink:href="#linear-gradient-21"/>
    <linearGradient id="linear-gradient-24" x1="0" y1="0.5" x2="1" y2="0.5" xlink:href="#linear-gradient-21"/>
  </defs>
  <g id="Group_710" data-name="Group 710" transform="translate(-17.7 -191.783)">
    <path id="XMLID_28238_" class="meet_3-1" d="M332.012,271.456l-52.558-13.669L343.691,220.7c1.989-1.155,3.209-2.824,3.209-4.492a4.5,4.5,0,0,0-2.439-3.786l-.193-.128L160.092,166.6c-3.016-1.6-7.957-1.412-11.295.513l-83.618,46.4L19.68,201.7c-.642.642-1.348,1.283-1.989,1.925l44.472,11.551L26.226,235.134c-1.989,1.155-3.209,2.824-3.209,4.492a4.5,4.5,0,0,0,2.439,3.786l.193.064,36.579,9.947L16.6,280.055c.578.578,1.091,1.155,1.669,1.733l47.167-27.466,142.4,38.825a10.793,10.793,0,0,0,4.941,1.091,12.877,12.877,0,0,0,6.417-1.6l57.371-33.113,52.879,13.733C330.279,272.675,331.177,272.034,332.012,271.456ZM217.719,290.131c-2.5,1.476-6.481,1.669-8.6.385l-.128-.064L26.8,240.846c-.385-.257-.9-.642-.9-1.155s.449-1.283,1.733-1.989l38.568-21.37,1.219.321.321-1.155,82.527-45.756c2.5-1.476,6.482-1.669,8.6-.385l.193.128,184.113,45.691a1.55,1.55,0,0,1,.834,1.155c0,.513-.449,1.283-1.733,2.054Z" transform="translate(1.1 131.491)"/>
    <path id="XMLID_28237_" class="meet_3-2" d="M340.795,195.467l-35.488-2.31L185.56,173.135c-2.182-1.219-5.9-1.091-8.407.321L96.808,217.093,68.7,215.232v25.156h0a2.524,2.524,0,0,0,1.412,2.118l155.877,41.52c2.182,1.219,5.968,1.091,8.471-.321L339.19,223.254a3.034,3.034,0,0,0,1.8-2.7h-.193Z" transform="translate(-17.565 129.06)"/>
    <path id="XMLID_28236_" class="meet_3-3" d="M225.962,247.721,70.085,206.137c-2.182-1.219-1.861-3.4.578-4.877l106.464-58.719c2.5-1.412,6.289-1.6,8.471-.321l154.144,39.787c2.182,1.219,1.861,3.4-.578,4.877L234.433,247.336A9.44,9.44,0,0,1,225.962,247.721Z" transform="translate(-17.539 140.145)"/>
    <ellipse id="XMLID_28235_" class="meet_3-4" cx="93.18" cy="16.685" rx="93.18" ry="16.685" transform="translate(98.3 327.927) rotate(-0.942)"/>
    <g id="XMLID_1468_" transform="translate(124.292 261.316)">
      <path id="XMLID_9192_" class="meet_3-5" d="M304.98,219.306,260.7,245.3v-5.07L304.98,214.3Z" transform="translate(-210.645 -147.303)"/>
      <path id="XMLID_9191_" class="meet_3-5" d="M253.176,256.653,239.7,251.006V246l13.476,5.583Z" transform="translate(-203.121 -158.66)"/>
      <path id="XMLID_9190_" class="meet_3-5" d="M238.7,244.7v-1.8l14.118,5.84v1.733l-13.541-5.583Z" transform="translate(-202.763 -157.55)"/>
      <path id="XMLID_9189_" class="meet_3-6" d="M223.466,223.258l-5.326-1.412-.513-21.883-10.332-3.08-.834.385v20.921l-2.054,1.861L191.7,217.225v-31.06l19.445-3.465,24.835,25.477v18.61Z" transform="translate(-185.924 -135.982)"/>
      <path id="XMLID_9188_" class="meet_3-5" d="M235.808,251.509l-44.344-11.872L191.4,232l36,10.011Z" transform="translate(-185.817 -153.644)"/>
      <path id="XMLID_9187_" class="meet_3-7" d="M190.9,231.121l.193-.321,44.536,13.22.321.128-.321.257Z" transform="translate(-185.638 -153.214)"/>
      <path id="XMLID_9186_" class="meet_3-8" d="M182.7,185.623v-2.7l25.028-4.428,25.028,25.477v2.7l-24.9-25.477-19.7,3.465Z" transform="translate(-182.7 -134.477)"/>
      <path id="XMLID_9185_" class="meet_3-8" d="M260.7,204.63v-2.7L310.113,172.8v2.7l-5.262,3.144-14.632,8.6-12.835,7.572-.513.257Z" transform="translate(-210.645 -132.435)"/>
      <path id="XMLID_9184_" class="meet_3-9" d="M246.735,187.711,221.9,162.235,271.57,133.1l14.118,14.5,8.728,8.984,1.989,1.989Z" transform="translate(-196.744 -118.212)"/>
      <path id="XMLID_9183_" class="meet_3-10" d="M208.035,162.235,183.2,166.663l40.75-23.872.064-.064.578-.321.9-.578h.128l1.412-.9,1.669-.963.963-.513.77-.449,1.669-.963.77-.513.706-.128,1.412-.257,1.155-.193.321-.064.449-.064.193-.064,3.53-.642v2.5l5.455-.963,5.455-3.144v-.257l6.161-1.155Z" transform="translate(-182.879 -118.212)"/>
      <path id="XMLID_9182_" class="meet_3-6" d="M278.476,133.357l-5.776.963V121.1l5.776,2.246Z" transform="translate(-214.944 -113.913)"/>
      <path id="XMLID_9181_" class="meet_3-11" d="M286.834,129.747l-5.134,3.144V122.88l5.134-3.08v9.947Z" transform="translate(-218.168 -113.447)"/>
      <path id="XMLID_9180_" class="meet_3-12" d="M232.806,237.573l-.706.128.064-31.252.706-.449Z" transform="translate(-200.398 -144.329)"/>
      <path id="XMLID_9179_" class="meet_3-13" d="M224.648,235.81l-1.8-.513.257-10.845V205.713l-9.113-1.8-.77-.257v29.006l-1.925-.513.257-12.578V200.9l13.284,3.722Z" transform="translate(-192.946 -142.502)"/>
      <path id="XMLID_9178_" class="meet_3-14" d="M223.813,236.666l-9.113-2.31V204.9l9.048,2.246Z" transform="translate(-194.165 -143.935)"/>
      <path id="XMLID_9177_" class="meet_3-12" d="M214.906,234.248l-.706-.193V204.6l.642.193Z" transform="translate(-193.985 -143.828)"/>
      <path id="XMLID_9176_" class="meet_3-15" d="M211.906,200.3l13.476,3.658-.706.449L211.2,200.685Z" transform="translate(-192.911 -142.287)"/>
      <path id="XMLID_9175_" class="meet_3-11" d="M304.98,181.9v18.61L260.7,226.5V207.89l16.043-9.562V211.8l.706.385,12.771-7.572V190.692l-.193-.193Z" transform="translate(-210.645 -135.695)"/>
      <path id="XMLID_9172_" class="meet_3-12" d="M299.535,209.49,286.7,217v-13.99l12.835-7.508Zm-1.925-.706v-10.4l-.578.513-.257.257-3.786,2.246-.9.513-3.465,1.989v10.4Z" transform="translate(-219.96 -140.568)"/>
      <path id="XMLID_9171_" class="meet_3-15" d="M299.92,195.493,287.085,203l-.385-.128,12.835-7.572Z" transform="translate(-219.96 -140.496)"/>
      <path id="XMLID_9170_" class="meet_3-13" d="M286.342,207.228v13.99l-.642-.385V207.357l.385-.257Z" transform="translate(-219.602 -144.724)"/>
      <path id="XMLID_9169_" class="meet_3-7" d="M260.6,236.89l44.344-25.99.385.128-44.408,25.99Z" transform="translate(-210.609 -146.085)"/>
      <path id="XMLID_9118_" class="meet_3-5" d="M190.7,232.9v-1.8l.385.128,12.385,3.85-.77,2.824-11.23-4.685Z" transform="translate(-185.566 -153.322)"/>
      <path id="XMLID_9021_" class="meet_3-5" d="M305.621,210.8v1.8l-.642.449L260.7,238.972v-1.733l.321-.257,44.28-25.99Z" transform="translate(-210.645 -146.049)"/>
      <path id="XMLID_9020_" class="meet_3-16" d="M266.649,138.2v.449l-.449.064Z" transform="translate(-212.615 -120.039)"/>
      <path id="XMLID_9019_" class="meet_3-15" d="M272.3,116.983l1.6-1.027h-.064v1.091l.449.128.77-.385,2.054.77.578.385v.513l.193.128.193-.128.064.128,5.006-2.888.834.385-5.84,3.4Z" transform="translate(-214.801 -111.978)"/>
      <path id="XMLID_9018_" class="meet_3-13" d="M271.7,117.7l6.417,2.5v1.925l-5.647-2.246-.77-.257Z" transform="translate(-214.586 -112.694)"/>
      <path id="XMLID_1522_" class="meet_3-12" d="M281.7,121.626V119.7l5.134-3.4v1.925l-.193.321Z" transform="translate(-218.168 -112.193)"/>
      <path id="XMLID_1520_" class="meet_3-8" d="M278.625,117.955l-1.925-.77.642-.385Z" transform="translate(-216.377 -112.372)"/>
      <path id="XMLID_1519_" class="meet_3-15" d="M277.342,116.513l-.642.385V116h.064Z" transform="translate(-216.377 -112.085)"/>
      <path id="XMLID_1518_" class="meet_3-8" d="M271.7,115.906v-.513l3.209-.193,3.209,2.7v.513l-.257-.128-.257-.193-.385-.321-.385-.385-1.283-1.155-.578-.513h-.064l-.706.064h-.578Z" transform="translate(-214.586 -111.799)"/>
      <path id="XMLID_1516_" class="meet_3-8" d="M281.7,117.979v-.513L286.834,114v.578l-.578.513Z" transform="translate(-218.168 -111.369)"/>
      <path id="XMLID_1515_" class="meet_3-9" d="M279.752,116l-2.952-2.7,5.9-3.4,2.888,2.631Z" transform="translate(-216.413 -109.9)"/>
      <path id="XMLID_1514_" class="meet_3-10" d="M275.188,113.3l-2.888.193,5.84-3.4,2.952-.193Z" transform="translate(-214.801 -109.9)"/>
      <path id="XMLID_1512_" class="meet_3-9" d="M276.178,116.9l-.578.385v-1.219l.578-.064Z" transform="translate(-215.983 -112.085)"/>
      <path id="XMLID_1511_" class="meet_3-10" d="M275.242,117.319l-.642-.128V116.1h.642Z" transform="translate(-215.625 -112.121)"/>
      <path id="XMLID_1510_" class="meet_3-10" d="M280.621,119.842l-.321-.128V119.2l.321.321Z" transform="translate(-217.667 -113.232)"/>
      <path id="XMLID_1508_" class="meet_3-9" d="M281.057,119.893l-.257.128V119.7Z" transform="translate(-217.846 -113.411)"/>
      <path id="XMLID_1507_" class="meet_3-13" d="M303.342,200v10.4l-.642-.385v-9.5Z" transform="translate(-225.692 -142.18)"/>
      <path id="XMLID_1506_" class="meet_3-15" d="M299.133,215.985,289.7,221.44v-.9l8.471-4.941Z" transform="translate(-221.035 -147.769)"/>
      <path id="XMLID_1502_" class="meet_3-17" d="M298.043,200.8v9.5l-8.343,4.941v-.449l3.209-1.989v-4.364l-3.209,1.989v-.834l3.209-1.989v-3.85l1.283-.513v3.85l3.209-2.246v-3.85Zm-3.85,7.187v4.364l3.209-2.246v-4.364Z" transform="translate(-221.035 -142.466)"/>
      <path id="XMLID_1500_" class="meet_3-18" d="M292.909,205.4v3.915L289.7,211.24v-3.85Z" transform="translate(-221.035 -144.115)"/>
      <path id="XMLID_1476_" class="meet_3-18" d="M299.909,201.2v3.85L296.7,207.3v-3.85Z" transform="translate(-223.542 -142.61)"/>
      <path id="XMLID_1475_" class="meet_3-18" d="M289.7,214.725l3.209-1.925v4.364l-3.209,1.925Z" transform="translate(-221.035 -146.766)"/>
      <path id="XMLID_1474_" class="meet_3-18" d="M296.7,215.11v-4.364l3.209-2.246v4.364Z" transform="translate(-223.542 -145.225)"/>
    </g>
    <path id="XMLID_9195_" class="meet_3-19" d="M257.3,94.093l.963.321L257.3,93.9Z" transform="translate(-85.135 157.148)"/>
    <path id="XMLID_9252_" class="meet_3-19" d="M259.083,91.491,257.864,90.4l-.064.449Z" transform="translate(-85.314 158.403)"/>
    <path id="XMLID_9253_" class="meet_3-19" d="M329.839,143.432l9.177-11.166h-.064l.642-1.027-1.155-.449-4.877-13.99L327.4,137.464A23.243,23.243,0,0,1,329.839,143.432Z" transform="translate(-110.249 148.944)"/>
    <path id="XMLID_9254_" class="meet_3-19" d="M331.3,158.7Z" transform="translate(-111.646 133.933)"/>
    <path id="XMLID_9255_" class="meet_3-20" d="M336.393,255.2a22.986,22.986,0,0,1-2.952,2.759c-.193.257-.064.9-.064.9a20.187,20.187,0,0,0,4.235.128,6.329,6.329,0,0,0,1.155-.578c.064-.064.193-.321.257-.385.128-.064.193.064.321,0,.257-.193.513-.321.513-.385a4.946,4.946,0,0,0,0-2.054l-3.4-.257Z" transform="translate(-112.375 99.36)"/>
    <path id="XMLID_9260_" class="meet_3-20" d="M299.542,255.269V253.6c-.064.064-.128.193-.193.257-.642,1.283-4.428,2.5-5.711,2.888a2.074,2.074,0,0,0-.77.706,3.062,3.062,0,0,0,0,1.091h6.417c.257,0,.449-.385.642-.385s.385.385.385.385H301.6l.449-2.631C300.954,257.579,299.542,255.269,299.542,255.269Z" transform="translate(-97.857 99.934)"/>
    <path id="XMLID_9261_" class="meet_3-21" d="M331.3,158.7h0c.128.449.193.963.321,1.476l.9,3.209.77.513,2.7-1.476.321-.321-.385-.578-.578.064.128-1.733-2.824-.513-.257-.128v.064C331.749,159.919,331.428,159.149,331.3,158.7Z" transform="translate(-111.646 133.933)"/>
    <path id="XMLID_9267_" class="meet_3-22" d="M295.524,95.2a1.5,1.5,0,0,0-.449.449,72.757,72.757,0,0,1-7.957,8.6l-.193.193.513.834,1.219,2.182-.064,3.786-.642-3.016-1.091-1.989-1.219-1.476-.513-.578-4.428,1.027.128.513a4.322,4.322,0,0,0,.642.064s5.583,7.765,3.658,9.048a3.7,3.7,0,0,1-1.669.578l2.118,1.412s1.219,1.8,7.123-2.888C292.315,103.478,294.69,97.125,295.524,95.2Z" transform="translate(-93.518 156.683)"/>
    <path id="XMLID_27333_" class="meet_3-23" d="M289.8,110.064a.224.224,0,0,0,.128-.064C289.864,110,289.8,110,289.8,110.064Z" transform="translate(-96.778 151.38)"/>
    <path id="XMLID_27342_" class="meet_3-24" d="M290.1,109.828c.064-.064.128-.064.193-.128C290.228,109.764,290.164,109.764,290.1,109.828Z" transform="translate(-96.886 151.488)"/>
    <path id="XMLID_27345_" class="meet_3-25" d="M289.4,110.164c.064,0,.064,0,.128-.064C289.464,110.1,289.464,110.1,289.4,110.164Z" transform="translate(-96.635 151.345)"/>
    <path id="XMLID_27432_" class="meet_3-21" d="M274.861,107.043c-1.989-.257-7.957-1.476-9.241-8.343a.281.281,0,0,1-.064.193l-.513.706-.963-.513a3.222,3.222,0,0,0-.128.77c-.513,2.759,1.219,10.46,6.161,13.6,3.594,2.246,5.711,3.273,7.316,3.209l-.706-.449Z" transform="translate(-87.486 155.429)"/>
    <path id="XMLID_27435_" class="meet_3-21" d="M281.642,111.764A4.322,4.322,0,0,1,281,111.7l1.989,9.177.706.449a3.992,3.992,0,0,0,1.669-.578C287.225,119.529,281.642,111.764,281.642,111.764Z" transform="translate(-93.626 150.771)"/>
    <path id="XMLID_27440_" class="meet_3-26" d="M303.2,201l.064,33.755c.9-.834,2.439,1.669,2.439,1.669l-.064.321c0-.064.064-.064.064-.128,2.439-4.492,6.1-15.658,6.225-20.728a52.115,52.115,0,0,0-1.027-12.321h-.064a14.6,14.6,0,0,1-.642,1.348Z" transform="translate(-101.579 118.778)"/>
    <path id="XMLID_27446_" class="meet_3-26" d="M303.3,253.5v1.668s1.348,1.989,2.439.257l.064-.321C305.8,255.173,304.2,252.671,303.3,253.5Z" transform="translate(-101.615 100.028)"/>
    <path id="XMLID_27447_" class="meet_3-26" d="M307.243,160.8l-1.091-11.1-2.631.064-.321,32.793,7.7,2.5c.449-.963,1.027-2.439,1.668-4.235l-2.118-7.508Z" transform="translate(-101.579 137.157)"/>
    <path id="XMLID_27457_" class="meet_3-26" d="M310.259,204.95s.257-.513.642-1.348l-7.7-2.5Z" transform="translate(-101.579 118.743)"/>
    <path id="XMLID_27473_" class="meet_3-27" d="M325.783,155.225h0a1.012,1.012,0,0,1-.064-.257h0A26.3,26.3,0,0,0,323.344,149l-.064.193-7.38.193a7.209,7.209,0,0,1,1.6,1.54c2.439,3.273,2.31,12.963,2.054,17.263a46.941,46.941,0,0,1-2.439,12.45l1.155,4.171,11.872,32.343.128-.128c.513-.706,3.273.321,3.273.321a.281.281,0,0,1,.064.193h.064s-.449-24.386-4.685-31.445c-2.246-3.786-2.246-12.129-3.273-21.113-.193-1.6.706-5.262.578-6.738l-.193-1.54-.449-1.54Z" transform="translate(-106.129 137.408)"/>
    <path id="XMLID_27474_" class="meet_3-27" d="M338.228,254.862l-.128.128.064.128,3.4.257a.5.5,0,0,1-.064-.193S338.678,254.156,338.228,254.862Z" transform="translate(-114.083 99.57)"/>
    <path id="XMLID_27476_" class="meet_3-27" d="M331.1,158.6l.449,1.54a9.982,9.982,0,0,0-.321-1.476Z" transform="translate(-111.575 133.969)"/>
    <path id="XMLID_27478_" class="meet_3-27" d="M314.6,151.14a6.063,6.063,0,0,0-1.6-1.54l-5.2.128,1.091,11.1,3.144,12.514,2.118,7.508a46.94,46.94,0,0,0,2.439-12.45C316.848,164.039,316.977,154.413,314.6,151.14Z" transform="translate(-103.228 137.193)"/>
    <path id="XMLID_27479_" class="meet_3-28" d="M310.217,97.573l.513-2.31.193.321c.064-.385.128-.834.193-1.283h-6.995a4.431,4.431,0,0,0-.321.642C305.6,93.722,308.677,96.161,310.217,97.573Z" transform="translate(-101.794 157.005)"/>
    <path id="XMLID_27490_" class="meet_3-29" d="M308.777,129.218l8.15-.706a5.908,5.908,0,0,1,.578.963l6.161-20.664-.449-1.283c-.385-1.219-6.225-12.514-2.439-12.9-.193,0-.449-.064-.706-.064-1.54,0-3.08-.064-4.621-.064a4.652,4.652,0,0,1-1.668,1.219l1.989-.963v.706l-4.62,4.364-.385-2.7,2.246-1.091a22.157,22.157,0,0,1-2.567.963l.064.064-1.219,1.091c.128.128.257.257.257.321,0,0,3.016,3.273-6.225,12-1.412,1.348-2.7,2.439-3.722,3.273a78.945,78.945,0,0,0,2.567,16.3h.128v-.513A9.6,9.6,0,0,1,308.777,129.218Z" transform="translate(-100.289 156.934)"/>
    <path id="XMLID_27493_" class="meet_3-30" d="M309.516,98.461c-.064-.064-.128-.193-.257-.321l-.834.706.257-1.219c-1.54-1.412-4.621-3.85-6.353-2.7-.834,1.925-3.209,8.278-2.759,18.739a46.817,46.817,0,0,0,3.722-3.273C312.468,101.8,309.516,98.461,309.516,98.461Z" transform="translate(-100.258 156.887)"/>
    <path id="XMLID_27492_" class="meet_3-31" d="M309.516,98.461c-.064-.064-.128-.193-.257-.321l-.834.706.257-1.219c-1.54-1.412-4.621-3.85-6.353-2.7-.834,1.925-3.209,8.278-2.759,18.739a46.817,46.817,0,0,0,3.722-3.273C312.468,101.8,309.516,98.461,309.516,98.461Z" transform="translate(-100.258 156.887)"/>
    <path id="XMLID_27495_" class="meet_3-26" d="M306.267,148.69l3.915-.321a10.22,10.22,0,0,0-6.481.321v.513l2.631-.064Z" transform="translate(-101.758 137.782)"/>
    <path id="XMLID_27494_" class="meet_3-32" d="M306.267,148.69l3.915-.321a10.22,10.22,0,0,0-6.481.321v.513l2.631-.064Z" transform="translate(-101.758 137.782)"/>
    <path id="XMLID_27497_" class="meet_3-27" d="M313.9,148.206a7.989,7.989,0,0,1,1.283.642l7.38-.193.064-.193a5.9,5.9,0,0,0-.578-.963Z" transform="translate(-105.412 137.945)"/>
    <path id="XMLID_27496_" class="meet_3-33" d="M313.9,148.206a7.989,7.989,0,0,1,1.283.642l7.38-.193.064-.193a5.9,5.9,0,0,0-.578-.963Z" transform="translate(-105.412 137.945)"/>
    <path id="XMLID_27522_" class="meet_3-27" d="M307.7,148.921l.064.449,5.2-.128a5.994,5.994,0,0,0-1.283-.642Z" transform="translate(-103.191 137.551)"/>
    <path id="XMLID_27521_" class="meet_3-34" d="M307.7,148.921l.064.449,5.2-.128a5.994,5.994,0,0,0-1.283-.642Z" transform="translate(-103.191 137.551)"/>
    <path id="XMLID_27523_" class="meet_3-21" d="M331.2,152.066c0,.064.064.193.064.257h0l1.091.513c0-.128-.321-.449.193-.77,2.374-1.283,7.957-3.273,10.011-5.262a34.673,34.673,0,0,0,4.043-4.813l-6.225-1.091Z" transform="translate(-111.611 140.31)"/>
    <path id="XMLID_27543_" class="meet_3-21" d="M332.327,159.213h0L331.3,158.7C331.428,159.149,331.749,159.919,332.327,159.213Z" transform="translate(-111.646 133.933)"/>
    <path id="XMLID_27544_" class="meet_3-21" d="M331.264,158.457c0-.064-.064-.193-.064-.257h0A.485.485,0,0,0,331.264,158.457Z" transform="translate(-111.611 134.112)"/>
    <path id="XMLID_27547_" class="meet_3-27" d="M316.9,97.174l.385,2.7,4.62-4.364V94.8l-1.989.963-.77.385Z" transform="translate(-106.487 156.826)"/>
    <path id="XMLID_27548_" class="meet_3-27" d="M314.506,96.121l-.192-.321-.513,2.31.513.513,1.219-1.091-.064-.064c-.321.128-.642.193-.77.257C314.442,97.725,314.442,97.019,314.506,96.121Z" transform="translate(-105.377 156.468)"/>
    <path id="XMLID_27549_" class="meet_3-27" d="M313.3,100.619l.834-.706-.513-.513Z" transform="translate(-105.197 155.178)"/>
    <path id="XMLID_27550_" class="meet_3-27" d="M290,109.964a.063.063,0,0,0,.064-.064A.063.063,0,0,0,290,109.964Z" transform="translate(-96.85 151.417)"/>
    <path id="XMLID_27552_" class="meet_3-27" d="M290.4,109.7Z" transform="translate(-96.993 151.488)"/>
    <path id="XMLID_27554_" class="meet_3-27" d="M289,110.2Z" transform="translate(-96.492 151.309)"/>
    <path id="XMLID_27555_" class="meet_3-27" d="M289.3,110.2h0Z" transform="translate(-96.6 151.309)"/>
    <path id="XMLID_27556_" class="meet_3-27" d="M288.6,110.3Z" transform="translate(-96.349 151.273)"/>
    <path id="XMLID_27557_" class="meet_3-27" d="M289.6,110.1h0Z" transform="translate(-96.707 151.345)"/>
    <path id="XMLID_27558_" class="meet_3-27" d="M288.8,110.2Z" transform="translate(-96.42 151.309)"/>
    <path id="XMLID_27559_" class="meet_3-27" d="M290.846,113.486l.642,3.016.064-3.786-1.219-2.182-.513-.834h-.064c-.064.064-.128.064-.193.128a.063.063,0,0,0-.064.064.224.224,0,0,0-.128.064h-.064c-.064,0-.128,0-.128.064h-.513l-.064-.064,1.219,1.476Z" transform="translate(-96.349 151.488)"/>
    <path id="XMLID_27623_" class="meet_3-35" d="M350.212,120.4,342.575,99.67a13.566,13.566,0,0,0-9.562-5.07H332.5c7.187.9,3.209,13.284,3.209,13.284l-.257.9,4.877,13.99,1.155.449-.642,1.027h.064l.513-.578,6.353.77s-.193.321-.578.9l.257.064Z" transform="translate(-112.076 156.898)"/>
    <path id="XMLID_27626_" class="meet_3-36" d="M334.313,107.5l.449,1.283.257-.9S339,95.434,331.81,94.6C328.088,94.985,333.928,106.28,334.313,107.5Z" transform="translate(-111.387 156.898)"/>
    <path id="XMLID_27624_" class="meet_3-37" d="M334.313,107.5l.449,1.283.257-.9S339,95.434,331.81,94.6C328.088,94.985,333.928,106.28,334.313,107.5Z" transform="translate(-111.387 156.898)"/>
    <path id="XMLID_27644_" class="meet_3-21" d="M345.913,139.9l-.513.578,6.225,1.091a6.568,6.568,0,0,0,.578-.9Z" transform="translate(-116.698 140.668)"/>
    <path id="XMLID_27638_" class="meet_3-38" d="M345.913,139.9l-.513.578,6.225,1.091a6.568,6.568,0,0,0,.578-.9Z" transform="translate(-116.698 140.668)"/>
    <path id="XMLID_27713_" class="meet_3-15" d="M321.04,93.591c.128-.321.257-.706.385-1.091-.9.642-2.567,1.027-5.711.513-.128,0-.257-.064-.385-.064a2.279,2.279,0,0,1-.128.642c1.8,0,3.722.064,5.776.064C321.04,93.655,321.04,93.655,321.04,93.591Z" transform="translate(-105.879 157.65)"/>
    <path id="XMLID_28217_" class="meet_3-15" d="M315.863,96.931c.642-.193,1.6-.578,2.567-.963l.77-.385a4.652,4.652,0,0,0,1.669-1.219c-2.054,0-3.979-.064-5.776-.064-.064.449-.128.834-.193,1.283Z" transform="translate(-105.771 157.005)"/>
    <path id="XMLID_28218_" class="meet_3-15" d="M321.17,96.3l-.77.385Z" transform="translate(-107.741 156.289)"/>
    <path id="XMLID_28219_" class="meet_3-15" d="M315.148,97.8a5.048,5.048,0,0,0,.77-.257l-.963-1.348C314.827,97.163,314.827,97.869,315.148,97.8Z" transform="translate(-105.762 156.325)"/>
    <path id="XMLID_28220_" class="meet_3-15" d="M314.506,84.164l-.513-.064h-.064l-.128.77A2,2,0,0,1,314.506,84.164Z" transform="translate(-105.377 160.66)"/>
    <path id="XMLID_28221_" class="meet_3-15" d="M316.012,76.856a.488.488,0,0,1,.385.513l-.321,2.182h.578c2.631.449,3.016,2.054,4.171,2.246.449.064.834-.193,1.219-.706l-.257-.064a.488.488,0,0,1-.385-.513l.385-2.31a.488.488,0,0,1,.513-.385l.77.128a33.969,33.969,0,0,0,.385-3.85c-.128-.963-2.567-.642-3.915-.513a4.892,4.892,0,0,1-3.722-1.283,3.7,3.7,0,0,0-.578.321v.128l-.642,3.786h.128Z" transform="translate(-105.664 164.887)"/>
    <path id="XMLID_28222_" class="meet_3-27" d="M314.834,71.5A2.27,2.27,0,0,0,314,72.848a5.89,5.89,0,0,0,.706,1.54,12.6,12.6,0,0,1,.321-1.861h0a2.282,2.282,0,0,1,.257-.578A2.9,2.9,0,0,1,314.834,71.5Z" transform="translate(-105.448 165.174)"/>
    <path id="XMLID_28223_" class="meet_3-27" d="M316.278,72.393h0c-.128-.064-.193-.128-.321-.193a.813.813,0,0,0-.257.578Q315.8,72.489,316.278,72.393Z" transform="translate(-106.058 164.923)"/>
    <path id="XMLID_28224_" class="meet_3-27" d="M316.419,69.715a1.777,1.777,0,0,1,.578-.064l5.9.963a1.361,1.361,0,0,1,1.091,1.54l-.578,3.786.449.064c.064,0,.128.064.192.064a17.117,17.117,0,0,0,1.412-4.107c0-1.027,0-1.733-1.219-1.989-1.8-.449-1.861-.064-2.631-.77a22.605,22.605,0,0,0-2.7-2.5,1.807,1.807,0,0,0-2.631,1.412,2.013,2.013,0,0,1-1.091,1.476c0,.064.064.064.064.128a.486.486,0,0,1,.257-.128A.76.76,0,0,1,316.419,69.715Z" transform="translate(-105.879 166.958)"/>
    <path id="XMLID_28225_" class="meet_3-27" d="M324.493,73.888a1.361,1.361,0,0,0-1.091-1.54l-5.9-.963a.906.906,0,0,0-.578.064,2.843,2.843,0,0,1,.321.385l-.642.257a4.892,4.892,0,0,0,3.722,1.283c1.283-.128,3.786-.449,3.915.513a24.449,24.449,0,0,1-.385,3.85h.064Z" transform="translate(-106.38 165.225)"/>
    <path id="XMLID_28226_" class="meet_3-27" d="M316.491,71.364a.778.778,0,0,0-.834-.193c-.128.064-.193.064-.257.128a1.772,1.772,0,0,0,.513.385A.979.979,0,0,1,316.491,71.364Z" transform="translate(-105.95 165.31)"/>
    <path id="XMLID_28227_" class="meet_3-27" d="M316.742,71.5a1.332,1.332,0,0,0-.642.385c.064.064.193.128.257.193h0l.642-.257A1.425,1.425,0,0,0,316.742,71.5Z" transform="translate(-106.201 165.174)"/>
    <path id="XMLID_28228_" class="meet_3-15" d="M327.613,81.464l-.193,1.027c0-.128.064-.193.064-.321,0,0-.192,1.091-.385,2.31l.449.064c.257.064.449-.128.513-.385l.385-2.31a.583.583,0,0,0-.193-.449.224.224,0,0,1-.064.128C328,81.657,327.678,81.721,327.613,81.464Z" transform="translate(-110.142 161.627)"/>
    <path id="XMLID_28229_" class="meet_3-15" d="M326.962,81.314h0v-.193l-.77-.128c-.257-.064-.449.128-.513.385l-.385,2.31c-.064.257.128.449.385.513l.257.064a5.035,5.035,0,0,0,.9-1.861Z" transform="translate(-109.49 161.777)"/>
    <path id="XMLID_28230_" class="meet_3-15" d="M327.864,81.2l-.064.193c.064.193.385.128.642,0a.2.2,0,0,1,.064-.128c-.064,0-.128-.064-.193-.064Z" transform="translate(-110.393 161.699)"/>
    <path id="XMLID_28231_" class="meet_3-15" d="M327.9,81.393h0l.064-.193H327.9Z" transform="translate(-110.429 161.699)"/>
    <path id="XMLID_28232_" class="meet_3-15" d="M313.785,81.6l.385-2.5a.37.37,0,0,0-.385.385L313.4,81.8v.257A2.048,2.048,0,0,0,313.785,81.6Z" transform="translate(-105.233 162.451)"/>
    <path id="XMLID_28233_" class="meet_3-15" d="M314.028,81.6s-.064.321-.128.706h.064l.513.064a2.529,2.529,0,0,1,1.283-.385l.321-2.182c.064-.257-.128-.449-.385-.513l-1.283-.193h-.128l-.257,2.5Z" transform="translate(-105.412 162.451)"/>
    <path id="XMLID_28234_" class="meet_3-27" d="M326.055,87.9a1.352,1.352,0,0,1-.834,1.027,9.381,9.381,0,0,1-.321,1.283,2.637,2.637,0,0,0,1.091-1.8c.064-.513.257-1.412.385-2.31h-.064Z" transform="translate(-109.354 159.943)"/>
    <path id="XMLID_28241_" class="meet_3-27" d="M313.975,87.222h2.054l-2.246-.257a1.264,1.264,0,0,1-1.091-1.476l.257-1.733a.5.5,0,0,1-.257-.257,8.571,8.571,0,0,0-1.155,2.31c-.128.834-.642,3.145,2.374,3.85a8.794,8.794,0,0,0,.128-1.027C314.039,88.12,314.488,88.506,313.975,87.222Z" transform="translate(-104.525 160.875)"/>
    <path id="XMLID_28242_" class="meet_3-27" d="M321.461,91.454a12.463,12.463,0,0,0,.321-1.283,1.387,1.387,0,0,1-.706-.064l-3.658-.706h-2.054c.513,1.283.064.834.064,1.476a8.048,8.048,0,0,1-.128.963.912.912,0,0,1,.385.128C318.894,92.416,320.562,92.031,321.461,91.454Z" transform="translate(-105.914 158.761)"/>
    <path id="XMLID_28245_" class="meet_3-27" d="M322,87.01l.257-1.733-.578-.064c-.385.449-.834.77-1.219.706-1.155-.193-1.54-1.8-4.171-2.246a.89.89,0,0,0-.578,0V83.8a.488.488,0,0,1-.513.385l-.706-.128a3.831,3.831,0,0,0-.706.642l.128-.77h-.064l-.257,1.8a1.237,1.237,0,0,0,1.091,1.412l2.246.257h4.492c0,.642-.064.449-.128.642C321.611,87.716,321.932,87.524,322,87.01ZM317.5,85.727a.488.488,0,0,1-.513.385l-1.8-.321a.488.488,0,0,1-.385-.513l.064-.257,2.7.449Z" transform="translate(-105.294 160.83)"/>
    <path id="XMLID_28246_" class="meet_3-27" d="M318.6,89.3l3.658.706a1.269,1.269,0,0,0,.706-.128c.064-.193.064.064.128-.578Z" transform="translate(-107.097 158.797)"/>
    <path id="XMLID_28247_" class="meet_3-27" d="M327.421,82.921,327.1,84.91h.064l.385-2.31C327.485,82.728,327.485,82.857,327.421,82.921Z" transform="translate(-110.142 161.197)"/>
    <path id="XMLID_28248_" class="meet_3-27" d="M327.1,83.1a4.584,4.584,0,0,1-.9,1.861l.578.064Z" transform="translate(-109.819 161.018)"/>
    <path id="XMLID_28249_" class="meet_3-27" d="M313.793,83.642l.128-.642a2.443,2.443,0,0,0-.321.385C313.6,83.513,313.664,83.642,313.793,83.642Z" transform="translate(-105.305 161.054)"/>
    <path id="XMLID_28250_" class="meet_3-27" d="M314.028,83h0l-.128.642h.064A3.751,3.751,0,0,1,314.028,83Z" transform="translate(-105.412 161.054)"/>
    <path id="XMLID_28251_" class="meet_3-27" d="M316.083,83.728V83.6a2.529,2.529,0,0,0-1.283.385l.706.128A.469.469,0,0,0,316.083,83.728Z" transform="translate(-105.735 160.839)"/>
    <path id="XMLID_28252_" class="meet_3-15" d="M315.493,86.057c-.064.257.128.449.385.513l1.8.321c.257.064.449-.128.513-.385l.064-.257-2.7-.449Z" transform="translate(-105.979 160.051)"/>
    <path id="XMLID_28253_" class="meet_3-21" d="M263.04,93.132c.064.513.128.963.193,1.476.193-.642.77-2.888.385-3.53-.449-.77-2.31-3.337-2.31-3.337l-.513-.642s-.963.257.321,1.989c1.219,1.733.193,1.219.193,1.219l-1.668-1.091-1.8-.963-.193,1.027,1.219,1.027-1.283-.578-.128.834.9.321-.064,1.091-.963-.321-.128.963,4.685,2.374C262.27,92.555,262.847,90.5,263.04,93.132Z" transform="translate(-85.1 159.585)"/>
    <path id="XMLID_28254_" class="meet_3-21" d="M265.812,97.382a.5.5,0,0,1,.064-.193c-.064-.449-.128-.963-.193-1.476-.193-2.631-.834-.578-1.283,1.861l.963.513Z" transform="translate(-87.679 156.939)"/>
    <path id="XMLID_28255_" class="meet_3-21" d="M257.3,93.793l.963.513-.9-.706Z" transform="translate(-85.135 157.256)"/>
    <path id="XMLID_28256_" class="meet_3-21" d="M258.3,93.876l.128-1.091-.9-.385-.128.77Z" transform="translate(-85.171 157.686)"/>
    <g id="XMLID_9193_" transform="translate(128.656 191.783)">
      <path id="XMLID_9246_" class="meet_3-39" d="M246.129,121.242a6.135,6.135,0,0,1-5.647-6.867c.064-.706,1.155-.963,1.8-.9a1.43,1.43,0,0,1,1.091,1.54c-.257,2.888,1.412,3.594,3.016,3.722,1.6.193,3.4-.9,3.594-3.915l.834-7.572c.064-.706.449-1.219,1.091-1.155a1.184,1.184,0,0,1,1.027,1.348l-.578,7.572C252.1,119.445,249.081,121.563,246.129,121.242Z" transform="translate(-207.754 -39.002)"/>
      <path id="XMLID_9199_" class="meet_3-40" d="M245.9,122.136c-3.08-.321-5.9-2.374-5.519-6.674a1.255,1.255,0,0,1,2.5.193c-.257,2.888,1.54,4.364,3.273,4.556s3.658-.834,3.85-3.85l.77-7.572a1.132,1.132,0,0,1,1.283-1.091c.706.064.834.513.77,1.219l-.77,7.829A5.792,5.792,0,0,1,245.9,122.136Z" transform="translate(-207.716 -39.575)"/>
      <path id="XMLID_9245_" class="meet_3-41" d="M270.743,58.4c-7.508-1.861-15.209-3.594-24.643-1.861l4.043-14.375,22.846-.064Z" transform="translate(-209.778 -16.076)"/>
      <path id="XMLID_9244_" class="meet_3-42" d="M261.847,15.8,256.2,77.406l2.118.193,5.711-61.606Z" transform="translate(-213.396 -6.653)"/>
      <path id="XMLID_9243_" class="meet_3-41" d="M325.715,61.572c-4.3-.578-8.407-.578-11.872,1.669L309.8,54l12.9,4.3Z" transform="translate(-232.6 -20.339)"/>
      <path id="XMLID_9242_" class="meet_3-43" d="M304.17,62.6c-6.867-1.54-13.541-2.246-20.215-.513L282.8,52.4h17.519Z" transform="translate(-222.926 -19.766)"/>
      <path id="XMLID_9241_" class="meet_3-44" d="M304.625,47.115c3.85-1.155,7.765.128,11.487,2.374-7.765-12.45-17.9-25.028-34.012-30.29Z" transform="translate(-222.676 -7.871)"/>
      <path id="XMLID_9240_" class="meet_3-45" d="M233.11,55.242c-6.931-2.5-14.632-3.337-22.91-2.952L218.157,39.9l22.782-1.6-3.658,5.326Z" transform="translate(-196.916 -14.714)"/>
      <path id="XMLID_9224_" class="meet_3-41" d="M202.963,53.787C200.589,50.9,195.776,50.45,190,50.514L201.615,42.3l4.749,2.31,1.027,2.118Z" transform="translate(-189.679 -16.147)"/>
      <path id="XMLID_9223_" class="meet_3-46" d="M228.967,15c-13.476,1.6-26.7,9.241-39.467,25.862a19.492,19.492,0,0,1,16.685-.642C212.474,31.878,219.148,21.482,228.967,15Z" transform="translate(-189.5 -6.367)"/>
      <path id="XMLID_9222_" class="meet_3-47" d="M263.311,15.9,257.6,77.571l1.219.064,5.711-61.606Z" transform="translate(-213.898 -6.689)"/>
      <path id="XMLID_9221_" class="meet_3-44" d="M246.973,14.739c4.749,1.925,4.235,17.006,3.722,27.595-10.589-4.877-22.974-4.428-35.3-2.118,8.343-13.476,16.942-26.5,26.5-25.733l3.337.128Z" transform="translate(-198.779 -6.169)"/>
      <path id="XMLID_9220_" class="meet_3-48" d="M298.261,45.89c-8.535-4.107-18.61-5.455-30.226-3.337-.578-12.835-.642-27.915-4.235-27.659C278.5,14.51,289.6,26.061,298.261,45.89Z" transform="translate(-216.119 -6.326)"/>
      <path id="XMLID_9219_" class="meet_3-42" d="M267.5,2.091l-.128,8.278c-.257.385-1.091.257-1.476-.128l1.155-8.15C267.248,1.77,267.376,1.9,267.5,2.091Z" transform="translate(-216.872 -1.672)"/>
      <path id="XMLID_9218_" class="meet_3-49" d="M268.034,3.763l.064-1.925c-.128-.321-.321-.449-.642,0L267.2,3.7l.193.064h.642Z" transform="translate(-217.337 -1.547)"/>
    </g>
    <g id="XMLID_9194_" transform="translate(172.229 247.316)">
      <path id="XMLID_28260_" class="meet_3-21" d="M261.2,91.138c.064.257-.064.321-.064.321l-1.091.449a.779.779,0,0,0-.321.064L257.8,92.1l.128-.834,2.631-.385C260.624,90.817,261.137,90.817,261.2,91.138Z" transform="translate(-257.543 -89.074)"/>
      <path id="XMLID_28258_" class="meet_3-21" d="M261.2,91.138c.064.257-.064.321-.064.321l-1.091.449a.779.779,0,0,0-.321.064L257.8,92.1l.128-.834,2.631-.385C260.624,90.817,261.137,90.817,261.2,91.138Z" transform="translate(-257.543 -89.074)"/>
      <path id="XMLID_28262_" class="meet_3-21" d="M259.74,88.287s.578-.257.77-.193c.513.193.193.578.193.578l-2.5,1.091.128-1.027.385-.064Z" transform="translate(-257.687 -88.084)"/>
      <path id="XMLID_28261_" class="meet_3-21" d="M259.74,88.287s.578-.257.77-.193c.513.193.193.578.193.578l-2.5,1.091.128-1.027.385-.064Z" transform="translate(-257.687 -88.084)"/>
      <path id="XMLID_28264_" class="meet_3-21" d="M258.619,94.4s.513.064.578.321a1.615,1.615,0,0,1,.128.385l-1.925.321.128-.963Z" transform="translate(-257.4 -90.347)"/>
      <path id="XMLID_28263_" class="meet_3-21" d="M258.619,94.4s.513.064.578.321a1.615,1.615,0,0,1,.128.385l-1.925.321.128-.963Z" transform="translate(-257.4 -90.347)"/>
      <path id="XMLID_28266_" class="meet_3-21" d="M260.01,92.4a2.632,2.632,0,0,1,.706.064.408.408,0,0,1,.257.513l-3.273.578.064-.257Z" transform="translate(-257.507 -89.63)"/>
      <path id="XMLID_28265_" class="meet_3-21" d="M260.01,92.4a2.632,2.632,0,0,1,.706.064.408.408,0,0,1,.257.513l-3.273.578.064-.257Z" transform="translate(-257.507 -89.63)"/>
      <path id="XMLID_28268_" class="meet_3-21" d="M260.01,92.4l-2.31.9.128-.706,1.925-.128C259.689,92.464,259.818,92.4,260.01,92.4Z" transform="translate(-257.507 -89.63)"/>
      <path id="XMLID_28267_" class="meet_3-21" d="M260.01,92.4l-2.31.9.128-.706,1.925-.128C259.689,92.464,259.818,92.4,260.01,92.4Z" transform="translate(-257.507 -89.63)"/>
    </g>
  </g>
</svg>
