<svg xmlns="http://www.w3.org/2000/svg" viewBox="0 0 55 19.743">
  <g id="civic" transform="translate(-10.399 -14.956)">
    <path id="XMLID_59_" d="M29.768,27.007a9.776,9.776,0,0,1-10.02,7.683,9.876,9.876,0,0,1-.064-19.721A9.786,9.786,0,0,1,29.8,22.653c-.512,0-1.024-.032-1.5,0a1.121,1.121,0,0,1-1.313-.8A7.148,7.148,0,0,0,20.1,17.435a7.407,7.407,0,1,0,7.043,9.988c.128-.32.256-.416.576-.384C28.391,27.007,29.064,27.007,29.768,27.007Z"/>
    <path id="XMLID_58_"  d="M166.29,34.048c-.384.384-.768.768-1.185,1.153-1.249-1.024-2.753-1.12-3.618-.16a2.691,2.691,0,0,0-.1,3.714,2.5,2.5,0,0,0,3.746-.1l1.152,1.249a4.3,4.3,0,1,1,0-5.859Z" transform="translate(-100.891 -12.035)"/>
    <path id="XMLID_57_"  d="M90.3,38.812c.416.384.832.736,1.249,1.12a4.29,4.29,0,0,1-6.371-.032,4.293,4.293,0,0,1,6.307-5.827L90.3,35.258a2.518,2.518,0,0,0-3.618-.128,2.651,2.651,0,0,0-.1,3.682A2.521,2.521,0,0,0,90.3,38.812Z" transform="translate(-50.064 -12.061)"/>
    <path id="XMLID_56_"  d="M120.2,33.532c.576,0,1.088-.032,1.6,0,.128,0,.288.16.352.256.672,1.409,1.345,2.817,2.017,4.194.064.128.128.256.192.416a2.132,2.132,0,0,1,.192-.384c.672-1.409,1.345-2.849,2.017-4.258a.388.388,0,0,1,.416-.256c.48.032.992,0,1.537,0a1.863,1.863,0,0,1-.16.352c-1.249,2.561-2.5,5.09-3.746,7.619-.064.128-.192.192-.288.32a2.071,2.071,0,0,1-.256-.288c-1.249-2.529-2.5-5.09-3.746-7.619C120.3,33.788,120.264,33.692,120.2,33.532Z" transform="translate(-74.649 -12.608)"/>
    <path id="XMLID_55_"  d="M35.029,41.736V39.3a.614.614,0,0,0-.288-.576,2.268,2.268,0,0,1-.992-2.241,2.157,2.157,0,0,1,1.569-1.857A2.275,2.275,0,0,1,38.1,35.782a2.322,2.322,0,0,1-.736,2.945.559.559,0,0,0-.288.576c0,.7,0,1.377-.032,2.081,0,.128-.032.224-.032.352Z" transform="translate(-15.857 -13.288)"/>
    <path id="XMLID_54_"  d="M151.5,41.7h-1.7v-8h1.7Z" transform="translate(-94.773 -12.743)"/>
    <path id="XMLID_53_"  d="M111.6,33.7h1.7v7.971h-1.7Z" transform="translate(-68.802 -12.743)"/>
    <path id="XMLID_52_"  d="M150.052,21.1a1.09,1.09,0,1,1-1.152,1.088A1.135,1.135,0,0,1,150.052,21.1Z" transform="translate(-94.161 -4.177)"/>
    <path id="XMLID_51_"  d="M111.649,21.1a1.081,1.081,0,0,1,1.12,1.056,1.121,1.121,0,0,1-1.152,1.12,1.068,1.068,0,0,1-1.12-1.088A1.114,1.114,0,0,1,111.649,21.1Z" transform="translate(-68.051 -4.177)"/>
  </g>
</svg>
