<svg xmlns="http://www.w3.org/2000/svg" xmlns:xlink="http://www.w3.org/1999/xlink" viewBox="0 0 60 30">
  <defs>
    <style>
      .logo-1 {
        fill: none;
        stroke: #fff;
        stroke-miterlimit: 10;
        stroke-width: 2px;
      }

      .logo-2 {
        fill: url(#linear-gradient);
      }

      .logo-3 {
        fill: url(#linear-gradient-2);
      }

      .logo-4 {
        fill: url(#linear-gradient-3);
      }

      .logo-5 {
        fill: url(#linear-gradient-4);
      }
    </style>
    <linearGradient id="linear-gradient" y1="0.603" x2="0.999" y2="0.603" gradientUnits="objectBoundingBox">
      <stop offset="0" stop-color="#ff2428"/>
      <stop offset="1" stop-color="#ff8d00"/>
    </linearGradient>
    <linearGradient id="linear-gradient-2" x1="-0.001" y1="0.509" x2="1.001" y2="0.509" xlink:href="#linear-gradient"/>
    <linearGradient id="linear-gradient-3" y1="0.603" x2="1.001" y2="0.603" gradientUnits="objectBoundingBox">
      <stop offset="0" stop-color="#008b95"/>
      <stop offset="1" stop-color="#003b61"/>
    </linearGradient>
    <linearGradient id="linear-gradient-4" x1="0" y1="0.401" x2="1" y2="0.401" xlink:href="#linear-gradient-3"/>
  </defs>
  <g id="XMLID_1004_" transform="translate(0 0)">
    <path id="XMLID_1009_" class="logo-1" d="M10.8,316" transform="translate(16 -291.157)"/>
    <path id="XMLID_1008_" class="logo-2" d="M-26.72,259.17h-5.914a3.947,3.947,0,0,1-3.943-4.824l8.086-17.246h8.714c2.4,1,2.8,2.08,2.143,4.1Z" transform="translate(49.92 -234.133)"/>
    <path id="XMLID_1007_" class="logo-3" d="M54.823,256.4H45.966a3.172,3.172,0,0,1-3.257-3.965l9.229-21.571a6.826,6.826,0,0,1,6.429-4.464h8.343Z" transform="translate(-6.709 -226.4)"/>
    <path id="XMLID_1006_" class="logo-4" d="M-68.286,259.17h8.514l-9.257-18.854a6.252,6.252,0,0,0-5.6-3.216H-83l8.086,17.856A7.428,7.428,0,0,0-68.286,259.17Z" transform="translate(83 -234.133)"/>
    <path id="XMLID_1005_" class="logo-5" d="M9.957,264.133h8.629L6.929,241.12A6.82,6.82,0,0,0,.671,237.1H-8.1L3.043,259.7A7.764,7.764,0,0,0,9.957,264.133Z" transform="translate(29.5 -234.133)"/>
  </g>
</svg>
