<svg xmlns="http://www.w3.org/2000/svg" xmlns:xlink="http://www.w3.org/1999/xlink" viewBox="0 0 10.95 10.41">
  <defs>
    <linearGradient id="linear-gradient" x2="0" y2="1" gradientUnits="objectBoundingBox">
      <stop offset="0" stop-color="#ff2428"/>
      <stop offset="1" stop-color="#ff8d00"/>
    </linearGradient>
  </defs>
  <path id="favorite" d="M10.95,15.779l-3.626-.765L5.475,11.8,3.626,15.014,0,15.779l2.484,2.75-.393,3.684L5.475,20.7l3.384,1.512-.393-3.684Z" transform="translate(0 -11.803)"/>
</svg>
